tutoriaisBRABOS/decoder/simulation/qsim/decod2_4.msim.vcd
$comment
	File created using the following command:
		vcd file decod2_4.msim.vcd -direction
$end
$date
	Wed Mar 03 11:40:07 2021
$end
$version
	ModelSim Version 10.1d
$end
$timescale
	1ps
$end
$scope module decod2_4_vlg_vec_tst $end
$var reg 2 ! B [1:0] $end
$var reg 1 " EN $end
$var wire 1 # Y [3] $end
$var wire 1 $ Y [2] $end
$var wire 1 % Y [1] $end
$var wire 1 & Y [0] $end
$var wire 1 ' sampler $end
$scope module i1 $end
$var wire 1 ( gnd $end
$var wire 1 ) vcc $end
$var wire 1 * unknown $end
$var tri1 1 + devclrn $end
$var tri1 1 , devpor $end
$var tri1 1 - devoe $end
$var wire 1 . Mux3~0_combout $end
$var wire 1 / EN~combout $end
$var wire 1 0 Mux1~0_combout $end
$var wire 1 1 Mux1~1_combout $end
$var wire 1 2 Mux1~2_combout $end
$var wire 1 3 B~combout [1] $end
$var wire 1 4 B~combout [0] $end
$upscope $end
$upscope $end
$enddefinitions $end
#0
$dumpvars
b0 !
0"
z&
z%
z$
z#
x'
0(
1)
x*
1+
1,
1-
1.
0/
00
01
02
04
03
$end
#5000
b1 !
14
0'
10
0.
#10000
b11 !
b10 !
04
13
1'
11
00
#15000
b11 !
14
0'
12
01
#20000
1"
b1 !
b0 !
1/
04
03
1'
02
1.
1#
0$
0%
0&
0#
1&
#25000
b1 !
14
0'
10
0.
1%
0&
#30000
b11 !
b10 !
04
13
1'
11
00
1$
0%
#35000
b11 !
14
0'
12
01
1#
0$
#40000
0"
b1 !
b0 !
0/
04
03
1'
02
1.
z#
z$
z%
z&
#45000
b1 !
14
0'
10
0.
#50000
b11 !
b10 !
04
13
1'
11
00
#55000
b11 !
14
0'
12
01
#60000
1"
b1 !
b0 !
1/
04
03
1'
02
1.
1#
0$
0%
0&
0#
1&
#65000
b1 !
14
0'
10
0.
1%
0&
#70000
b11 !
b10 !
04
13
1'
11
00
1$
0%
#75000
b11 !
14
0'
12
01
1#
0$
#80000
0"
b1 !
b0 !
0/
04
03
1'
02
1.
z#
z$
z%
z&
#85000
b1 !
14
0'
10
0.
#90000
b11 !
b10 !
04
13
1'
11
00
#95000
b11 !
14
0'
12
01
#100000
1"
b1 !
b0 !
1/
04
03
1'
02
1.
1#
0$
0%
0&
0#
1&
#105000
b1 !
14
0'
10
0.
1%
0&
#110000
b11 !
b10 !
04
13
1'
11
00
1$
0%
#115000
b11 !
14
0'
12
01
1#
0$
#120000
0"
b1 !
b0 !
0/
04
03
1'
02
1.
z#
z$
z%
z&
#125000
b1 !
14
0'
10
0.
#130000
b11 !
b10 !
04
13
1'
11
00
#135000
b11 !
14
0'
12
01
#140000
1"
b1 !
b0 !
1/
04
03
1'
02
1.
1#
0$
0%
0&
0#
1&
#145000
b1 !
14
0'
10
0.
1%
0&
#150000
b11 !
b10 !
04
13
1'
11
00
1$
0%
#155000
b11 !
14
0'
12
01
1#
0$
#160000
0"
b1 !
b0 !
0/
04
03
1'
02
1.
z#
z$
z%
z&
#165000
b1 !
14
0'
10
0.
#170000
b11 !
b10 !
04
13
1'
11
00
#175000
b11 !
14
0'
12
01
#180000
1"
b1 !
b0 !
1/
04
03
1'
02
1.
1#
0$
0%
0&
0#
1&
#185000
b1 !
14
0'
10
0.
1%
0&
#190000
b11 !
b10 !
04
13
1'
11
00
1$
0%
#195000
b11 !
14
0'
12
01
1#
0$
#200000
0"
b1 !
b0 !
0/
04
03
1'
02
1.
z#
z$
z%
z&
#205000
b1 !
14
0'
10
0.
#210000
b11 !
b10 !
04
13
1'
11
00
#215000
b11 !
14
0'
12
01
#220000
1"
b1 !
b0 !
1/
04
03
1'
02
1.
1#
0$
0%
0&
0#
1&
#225000
b1 !
14
0'
10
0.
1%
0&
#230000
b11 !
b10 !
04
13
1'
11
00
1$
0%
#235000
b11 !
14
0'
12
01
1#
0$
#240000
0"
b1 !
b0 !
0/
04
03
1'
02
1.
z#
z$
z%
z&
#245000
b1 !
14
0'
10
0.
#250000
b11 !
b10 !
04
13
1'
11
00
#255000
b11 !
14
0'
12
01
#260000
1"
b1 !
b0 !
1/
04
03
1'
02
1.
1#
0$
0%
0&
0#
1&
#265000
b1 !
14
0'
10
0.
1%
0&
#270000
b11 !
b10 !
04
13
1'
11
00
1$
0%
#275000
b11 !
14
0'
12
01
1#
0$
#280000
0"
b1 !
b0 !
0/
04
03
1'
02
1.
z#
z$
z%
z&
#285000
b1 !
14
0'
10
0.
#290000
b11 !
b10 !
04
13
1'
11
00
#295000
b11 !
14
0'
12
01
#300000
1"
b1 !
b0 !
1/
04
03
1'
02
1.
1#
0$
0%
0&
0#
1&
#305000
b1 !
14
0'
10
0.
1%
0&
#310000
b11 !
b10 !
04
13
1'
11
00
1$
0%
#315000
b11 !
14
0'
12
01
1#
0$
#320000
0"
b1 !
b0 !
0/
04
03
1'
02
1.
z#
z$
z%
z&
#325000
b1 !
14
0'
10
0.
#330000
b11 !
b10 !
04
13
1'
11
00
#335000
b11 !
14
0'
12
01
#340000
1"
b1 !
b0 !
1/
04
03
1'
02
1.
1#
0$
0%
0&
0#
1&
#345000
b1 !
14
0'
10
0.
1%
0&
#350000
b11 !
b10 !
04
13
1'
11
00
1$
0%
#355000
b11 !
14
0'
12
01
1#
0$
#360000
0"
b1 !
b0 !
0/
04
03
1'
02
1.
z#
z$
z%
z&
#365000
b1 !
14
0'
10
0.
#370000
b11 !
b10 !
04
13
1'
11
00
#375000
b11 !
14
0'
12
01
#380000
1"
b1 !
b0 !
1/
04
03
1'
02
1.
1#
0$
0%
0&
0#
1&
#385000
b1 !
14
0'
10
0.
1%
0&
#390000
b11 !
b10 !
04
13
1'
11
00
1$
0%
#395000
b11 !
14
0'
12
01
1#
0$
#400000
0"
b1 !
b0 !
0/
04
03
1'
02
1.
z#
z$
z%
z&
#405000
b1 !
14
0'
10
0.
#410000
b11 !
b10 !
04
13
1'
11
00
#415000
b11 !
14
0'
12
01
#420000
1"
b1 !
b0 !
1/
04
03
1'
02
1.
1#
0$
0%
0&
0#
1&
#425000
b1 !
14
0'
10
0.
1%
0&
#430000
b11 !
b10 !
04
13
1'
11
00
1$
0%
#435000
b11 !
14
0'
12
01
1#
0$
#440000
0"
b1 !
b0 !
0/
04
03
1'
02
1.
z#
z$
z%
z&
#445000
b1 !
14
0'
10
0.
#450000
b11 !
b10 !
04
13
1'
11
00
#455000
b11 !
14
0'
12
01
#460000
1"
b1 !
b0 !
1/
04
03
1'
02
1.
1#
0$
0%
0&
0#
1&
#465000
b1 !
14
0'
10
0.
1%
0&
#470000
b11 !
b10 !
04
13
1'
11
00
1$
0%
#475000
b11 !
14
0'
12
01
1#
0$
#480000
0"
b1 !
b0 !
0/
04
03
1'
02
1.
z#
z$
z%
z&
#485000
b1 !
14
0'
10
0.
#490000
b11 !
b10 !
04
13
1'
11
00
#495000
b11 !
14
0'
12
01
#500000
1"
b1 !
b0 !
1/
04
03
1'
02
1.
1#
0$
0%
0&
0#
1&
#505000
b1 !
14
0'
10
0.
1%
0&
#510000
b11 !
b10 !
04
13
1'
11
00
1$
0%
#515000
b11 !
14
0'
12
01
1#
0$
#520000
0"
b1 !
b0 !
0/
04
03
1'
02
1.
z#
z$
z%
z&
#525000
b1 !
14
0'
10
0.
#530000
b11 !
b10 !
04
13
1'
11
00
#535000
b11 !
14
0'
12
01
#540000
1"
b1 !
b0 !
1/
04
03
1'
02
1.
1#
0$
0%
0&
0#
1&
#545000
b1 !
14
0'
10
0.
1%
0&
#550000
b11 !
b10 !
04
13
1'
11
00
1$
0%
#555000
b11 !
14
0'
12
01
1#
0$
#560000
0"
b1 !
b0 !
0/
04
03
1'
02
1.
z#
z$
z%
z&
#565000
b1 !
14
0'
10
0.
#570000
b11 !
b10 !
04
13
1'
11
00
#575000
b11 !
14
0'
12
01
#580000
1"
b1 !
b0 !
1/
04
03
1'
02
1.
1#
0$
0%
0&
0#
1&
#585000
b1 !
14
0'
10
0.
1%
0&
#590000
b11 !
b10 !
04
13
1'
11
00
1$
0%
#595000
b11 !
14
0'
12
01
1#
0$
#600000
0"
b1 !
b0 !
0/
04
03
1'
02
1.
z#
z$
z%
z&
#605000
b1 !
14
0'
10
0.
#610000
b11 !
b10 !
04
13
1'
11
00
#615000
b11 !
14
0'
12
01
#620000
1"
b1 !
b0 !
1/
04
03
1'
02
1.
1#
0$
0%
0&
0#
1&
#625000
b1 !
14
0'
10
0.
1%
0&
#630000
b11 !
b10 !
04
13
1'
11
00
1$
0%
#635000
b11 !
14
0'
12
01
1#
0$
#640000
0"
b1 !
b0 !
0/
04
03
1'
02
1.
z#
z$
z%
z&
#645000
b1 !
14
0'
10
0.
#650000
b11 !
b10 !
04
13
1'
11
00
#655000
b11 !
14
0'
12
01
#660000
1"
b1 !
b0 !
1/
04
03
1'
02
1.
1#
0$
0%
0&
0#
1&
#665000
b1 !
14
0'
10
0.
1%
0&
#670000
b11 !
b10 !
04
13
1'
11
00
1$
0%
#675000
b11 !
14
0'
12
01
1#
0$
#680000
0"
b1 !
b0 !
0/
04
03
1'
02
1.
z#
z$
z%
z&
#685000
b1 !
14
0'
10
0.
#690000
b11 !
b10 !
04
13
1'
11
00
#695000
b11 !
14
0'
12
01
#700000
1"
b1 !
b0 !
1/
04
03
1'
02
1.
1#
0$
0%
0&
0#
1&
#705000
b1 !
14
0'
10
0.
1%
0&
#710000
b11 !
b10 !
04
13
1'
11
00
1$
0%
#715000
b11 !
14
0'
12
01
1#
0$
#720000
0"
b1 !
b0 !
0/
04
03
1'
02
1.
z#
z$
z%
z&
#725000
b1 !
14
0'
10
0.
#730000
b11 !
b10 !
04
13
1'
11
00
#735000
b11 !
14
0'
12
01
#740000
1"
b1 !
b0 !
1/
04
03
1'
02
1.
1#
0$
0%
0&
0#
1&
#745000
b1 !
14
0'
10
0.
1%
0&
#750000
b11 !
b10 !
04
13
1'
11
00
1$
0%
#755000
b11 !
14
0'
12
01
1#
0$
#760000
0"
b1 !
b0 !
0/
04
03
1'
02
1.
z#
z$
z%
z&
#765000
b1 !
14
0'
10
0.
#770000
b11 !
b10 !
04
13
1'
11
00
#775000
b11 !
14
0'
12
01
#780000
1"
b1 !
b0 !
1/
04
03
1'
02
1.
1#
0$
0%
0&
0#
1&
#785000
b1 !
14
0'
10
0.
1%
0&
#790000
b11 !
b10 !
04
13
1'
11
00
1$
0%
#795000
b11 !
14
0'
12
01
1#
0$
#800000
0"
b1 !
b0 !
0/
04
03
1'
02
1.
z#
z$
z%
z&
#805000
b1 !
14
0'
10
0.
#810000
b11 !
b10 !
04
13
1'
11
00
#815000
b11 !
14
0'
12
01
#820000
1"
b1 !
b0 !
1/
04
03
1'
02
1.
1#
0$
0%
0&
0#
1&
#825000
b1 !
14
0'
10
0.
1%
0&
#830000
b11 !
b10 !
04
13
1'
11
00
1$
0%
#835000
b11 !
14
0'
12
01
1#
0$
#840000
0"
b1 !
b0 !
0/
04
03
1'
02
1.
z#
z$
z%
z&
#845000
b1 !
14
0'
10
0.
#850000
b11 !
b10 !
04
13
1'
11
00
#855000
b11 !
14
0'
12
01
#860000
1"
b1 !
b0 !
1/
04
03
1'
02
1.
1#
0$
0%
0&
0#
1&
#865000
b1 !
14
0'
10
0.
1%
0&
#870000
b11 !
b10 !
04
13
1'
11
00
1$
0%
#875000
b11 !
14
0'
12
01
1#
0$
#880000
0"
b1 !
b0 !
0/
04
03
1'
02
1.
z#
z$
z%
z&
#885000
b1 !
14
0'
10
0.
#890000
b11 !
b10 !
04
13
1'
11
00
#895000
b11 !
14
0'
12
01
#900000
1"
b1 !
b0 !
1/
04
03
1'
02
1.
1#
0$
0%
0&
0#
1&
#905000
b1 !
14
0'
10
0.
1%
0&
#910000
b11 !
b10 !
04
13
1'
11
00
1$
0%
#915000
b11 !
14
0'
12
01
1#
0$
#920000
0"
b1 !
b0 !
0/
04
03
1'
02
1.
z#
z$
z%
z&
#925000
b1 !
14
0'
10
0.
#930000
b11 !
b10 !
04
13
1'
11
00
#935000
b11 !
14
0'
12
01
#940000
1"
b1 !
b0 !
1/
04
03
1'
02
1.
1#
0$
0%
0&
0#
1&
#945000
b1 !
14
0'
10
0.
1%
0&
#950000
b11 !
b10 !
04
13
1'
11
00
1$
0%
#955000
b11 !
14
0'
12
01
1#
0$
#960000
0"
b1 !
b0 !
0/
04
03
1'
02
1.
z#
z$
z%
z&
#965000
b1 !
14
0'
10
0.
#970000
b11 !
b10 !
04
13
1'
11
00
#975000
b11 !
14
0'
12
01
#980000
1"
b1 !
b0 !
1/
04
03
1'
02
1.
1#
0$
0%
0&
0#
1&
#985000
b1 !
14
0'
10
0.
1%
0&
#990000
b11 !
b10 !
04
13
1'
11
00
1$
0%
#995000
b11 !
14
0'
12
01
1#
0$
