cont4/simulation/qsim/cont4.msim.vcd
$comment
	File created using the following command:
		vcd file cont4.msim.vcd -direction
$end
$date
	Thu Mar 18 16:47:54 2021
$end
$version
	ModelSim Version 10.1d
$end
$timescale
	1ps
$end
$scope module cont4_vlg_vec_tst $end
$var reg 1 ! CLK $end
$var reg 1 " CLR $end
$var reg 1 # EN $end
$var reg 1 $ LD $end
$var reg 4 % LOAD [3:0] $end
$var reg 1 & RST $end
$var wire 1 ' Q [3] $end
$var wire 1 ( Q [2] $end
$var wire 1 ) Q [1] $end
$var wire 1 * Q [0] $end
$var wire 1 + sampler $end
$scope module i1 $end
$var wire 1 , gnd $end
$var wire 1 - vcc $end
$var wire 1 . unknown $end
$var tri1 1 / devclrn $end
$var tri1 1 0 devpor $end
$var tri1 1 1 devoe $end
$var wire 1 2 CLK~combout $end
$var wire 1 3 CLK~clkctrl_outclk $end
$var wire 1 4 LD~combout $end
$var wire 1 5 CONT~0_combout $end
$var wire 1 6 RST~combout $end
$var wire 1 7 RST~clkctrl_outclk $end
$var wire 1 8 CLR~combout $end
$var wire 1 9 DIVI[18]~0_combout $end
$var wire 1 : Add0~0_combout $end
$var wire 1 ; Add0~1 $end
$var wire 1 < Add0~3 $end
$var wire 1 = Add0~4_combout $end
$var wire 1 > Add0~5 $end
$var wire 1 ? Add0~7 $end
$var wire 1 @ Add0~8_combout $end
$var wire 1 A Add0~9 $end
$var wire 1 B Add0~11 $end
$var wire 1 C Add0~12_combout $end
$var wire 1 D Add0~13 $end
$var wire 1 E Add0~14_combout $end
$var wire 1 F Add0~15 $end
$var wire 1 G Add0~16_combout $end
$var wire 1 H Add0~17 $end
$var wire 1 I Add0~19 $end
$var wire 1 J Add0~20_combout $end
$var wire 1 K Add0~21 $end
$var wire 1 L Add0~22_combout $end
$var wire 1 M Add0~23 $end
$var wire 1 N Add0~24_combout $end
$var wire 1 O Add0~25 $end
$var wire 1 P Add0~27 $end
$var wire 1 Q Add0~28_combout $end
$var wire 1 R Add0~29 $end
$var wire 1 S Add0~30_combout $end
$var wire 1 T Add0~31 $end
$var wire 1 U Add0~32_combout $end
$var wire 1 V Add0~33 $end
$var wire 1 W Add0~34_combout $end
$var wire 1 X Add0~35 $end
$var wire 1 Y Add0~36_combout $end
$var wire 1 Z CONT[0]~1_combout $end
$var wire 1 [ Add0~10_combout $end
$var wire 1 \ EN~combout $end
$var wire 1 ] Add0~2_combout $end
$var wire 1 ^ CONT[0]~2_combout $end
$var wire 1 _ Add0~6_combout $end
$var wire 1 ` CONT[0]~3_combout $end
$var wire 1 a CONT[0]~4_combout $end
$var wire 1 b Add0~26_combout $end
$var wire 1 c CONT[0]~6_combout $end
$var wire 1 d Add0~18_combout $end
$var wire 1 e CONT[0]~5_combout $end
$var wire 1 f CONT[0]~7_combout $end
$var wire 1 g CONT[0]~8_combout $end
$var wire 1 h CONT~9_combout $end
$var wire 1 i CONT~10_combout $end
$var wire 1 j CONT~11_combout $end
$var wire 1 k CONT~12_combout $end
$var wire 1 l Add1~0_combout $end
$var wire 1 m CONT~13_combout $end
$var wire 1 n LOAD~combout [3] $end
$var wire 1 o LOAD~combout [2] $end
$var wire 1 p LOAD~combout [1] $end
$var wire 1 q LOAD~combout [0] $end
$var wire 1 r CONT [3] $end
$var wire 1 s CONT [2] $end
$var wire 1 t CONT [1] $end
$var wire 1 u CONT [0] $end
$var wire 1 v DIVI [18] $end
$var wire 1 w DIVI [17] $end
$var wire 1 x DIVI [16] $end
$var wire 1 y DIVI [15] $end
$var wire 1 z DIVI [14] $end
$var wire 1 { DIVI [13] $end
$var wire 1 | DIVI [12] $end
$var wire 1 } DIVI [11] $end
$var wire 1 ~ DIVI [10] $end
$var wire 1 !! DIVI [9] $end
$var wire 1 "! DIVI [8] $end
$var wire 1 #! DIVI [7] $end
$var wire 1 $! DIVI [6] $end
$var wire 1 %! DIVI [5] $end
$var wire 1 &! DIVI [4] $end
$var wire 1 '! DIVI [3] $end
$var wire 1 (! DIVI [2] $end
$var wire 1 )! DIVI [1] $end
$var wire 1 *! DIVI [0] $end
$upscope $end
$upscope $end
$enddefinitions $end
#0
$dumpvars
0!
0"
1#
0$
b0 %
0&
0*
0)
0(
0'
x+
0,
1-
x.
1/
10
11
02
03
04
15
06
07
08
19
1:
0;
1<
0=
0>
1?
0@
0A
1B
0C
0D
0E
1F
0G
0H
1I
0J
0K
0L
1M
0N
0O
1P
0Q
0R
0S
1T
0U
0V
0W
1X
0Y
0Z
0[
1\
0]
1^
0_
0`
1a
0b
0c
0d
0e
0f
0g
0h
0i
0j
0k
0l
0m
0q
0p
0o
0n
0u
0t
0s
0r
0*!
0)!
0(!
0'!
0&!
0%!
0$!
0#!
0"!
0!!
0~
0}
0|
0{
0z
0y
0x
0w
0v
$end
#50
1!
12
13
0+
1*!
1;
0:
1]
0^
1^
0a
1a
1g
0g
#100
0!
02
03
1+
#150
1!
12
13
0+
0*!
1)!
0;
1:
0<
0]
1<
1]
1=
0=
#200
0!
02
03
1+
#250
1!
12
13
0+
1*!
1;
0:
0<
0]
1=
0^
1^
0a
1a
1g
0g
#300
0!
02
03
1+
#350
1!
12
13
0+
1(!
0*!
0)!
1>
0=
0;
1:
1<
1]
1_
0]
0>
1=
1`
0_
0`
#400
0!
02
03
1+
#450
1!
12
13
0+
1*!
1;
0:
1]
#500
0!
02
03
1+
#550
1!
12
13
0+
0*!
1)!
0;
1:
0<
0]
1<
1]
1>
0=
0>
1=
1_
0_
1`
0`
#600
0!
02
03
1+
#650
1!
12
13
0+
1*!
1;
0:
0<
0]
1>
0=
1_
0^
1`
0a
1a
1g
0g
#700
0!
02
03
1+
#750
1!
12
13
0+
0(!
0*!
0)!
1'!
0>
1=
0;
1:
1<
1]
0?
0_
1?
1_
1^
0]
0=
1@
0`
0@
1`
#800
0!
02
03
1+
#850
1!
12
13
0+
1*!
1;
0:
1]
0^
1^
#900
0!
02
03
1+
#950
1!
12
13
0+
0*!
1)!
0;
1:
0<
0]
1<
1]
1=
0=
#1000
0!
02
03
1+
#1050
1!
12
13
0+
1*!
1;
0:
0<
0]
1=
0^
1^
#1100
0!
02
03
1+
#1150
1!
12
13
0+
1(!
0*!
0)!
1>
0=
0;
1:
1<
1]
0?
0_
0]
0>
1=
1@
0`
1?
1_
1`
0@
#1200
0!
02
03
1+
#1250
1!
12
13
0+
1*!
1;
0:
1]
#1300
0!
02
03
1+
#1350
1!
12
13
0+
0*!
1)!
0;
1:
0<
0]
1<
1]
1>
0=
0>
1=
0?
0_
1?
1_
1@
0`
0@
1`
#1400
0!
02
03
1+
#1450
1!
12
13
0+
1*!
1;
0:
0<
0]
1>
0=
0?
0_
0^
1@
0`
1`
0a
1a
1g
0g
#1500
0!
02
03
1+
#1550
1!
12
13
0+
1&!
0(!
0*!
0)!
0'!
1A
0@
0>
1=
0;
1:
1<
1]
1?
1_
1[
0_
1^
0]
0=
0A
1@
0[
#1600
0!
02
03
1+
#1650
1!
12
13
0+
1*!
1;
0:
1]
0^
1^
#1700
0!
02
03
1+
#1750
1!
12
13
0+
0*!
1)!
0;
1:
0<
0]
1<
1]
1=
0=
#1800
0!
02
03
1+
#1850
1!
12
13
0+
1*!
1;
0:
0<
0]
1=
0^
1^
#1900
0!
02
03
1+
#1950
1!
12
13
0+
1(!
0*!
0)!
1>
0=
0;
1:
1<
1]
1_
0]
0>
1=
0_
#2000
0!
02
03
1+
#2050
1!
12
13
0+
1*!
1;
0:
1]
#2100
0!
02
03
1+
#2150
1!
12
13
0+
0*!
1)!
0;
1:
0<
0]
1<
1]
1>
0=
0>
1=
1_
0_
#2200
0!
02
03
1+
#2250
1!
12
13
0+
1*!
1;
0:
0<
0]
1>
0=
1_
0^
#2300
0!
02
03
1+
#2350
1!
12
13
0+
0(!
0*!
0)!
1'!
0>
1=
0;
1:
1<
1]
0?
0_
1?
1_
1^
0]
0=
1A
0@
0A
1@
1[
0[
#2400
0!
02
03
1+
#2450
1!
12
13
0+
1*!
1;
0:
1]
0^
1^
#2500
0!
02
03
1+
#2550
1!
12
13
0+
0*!
1)!
0;
1:
0<
0]
1<
1]
1=
0=
#2600
0!
02
03
1+
#2650
1!
12
13
0+
1*!
1;
0:
0<
0]
1=
0^
1^
#2700
0!
02
03
1+
#2750
1!
12
13
0+
1(!
0*!
0)!
1>
0=
0;
1:
1<
1]
0?
0_
0]
0>
1=
1A
0@
1?
1_
1[
0A
1@
0[
#2800
0!
02
03
1+
#2850
1!
12
13
0+
1*!
1;
0:
1]
#2900
0!
02
03
1+
#2950
1!
12
13
0+
0*!
1)!
0;
1:
0<
0]
1<
1]
1>
0=
0>
1=
0?
0_
1?
1_
1A
0@
0A
1@
1[
0[
#3000
0!
02
03
1+
#3050
1!
12
13
0+
1*!
1;
0:
0<
0]
1>
0=
0?
0_
0^
1A
0@
1[
0`
#3100
0!
02
03
1+
#3150
1!
12
13
0+
0&!
0(!
0*!
0)!
0'!
1%!
0A
1@
0>
1=
0;
1:
1<
1]
1?
1_
0B
0[
1B
1[
1`
0_
1^
0]
0=
0@
1C
0a
0C
1a
0`
1g
0g
#3200
0!
02
03
1+
#3250
1!
12
13
0+
1*!
1;
0:
1]
0^
1^
#3300
0!
02
03
1+
#3350
1!
12
13
0+
0*!
1)!
0;
1:
0<
0]
1<
1]
1=
0=
#3400
0!
02
03
1+
#3450
1!
12
13
0+
1*!
1;
0:
0<
0]
1=
0^
1^
#3500
0!
02
03
1+
#3550
1!
12
13
0+
1(!
0*!
0)!
1>
0=
0;
1:
1<
1]
1_
0]
0>
1=
1`
0_
0`
#3600
0!
02
03
1+
#3650
1!
12
13
0+
1*!
1;
0:
1]
#3700
0!
02
03
1+
#3750
1!
12
13
0+
0*!
1)!
0;
1:
0<
0]
1<
1]
1>
0=
0>
1=
1_
0_
1`
0`
#3800
0!
02
03
1+
#3850
1!
12
13
0+
1*!
1;
0:
0<
0]
1>
0=
1_
0^
1`
#3900
0!
02
03
1+
#3950
1!
12
13
0+
0(!
0*!
0)!
1'!
0>
1=
0;
1:
1<
1]
0?
0_
1?
1_
1^
0]
0=
1@
0`
0@
1`
#4000
0!
02
03
1+
#4050
1!
12
13
0+
1*!
1;
0:
1]
0^
1^
#4100
0!
02
03
1+
#4150
1!
12
13
0+
0*!
1)!
0;
1:
0<
0]
1<
1]
1=
0=
#4200
0!
02
03
1+
#4250
1!
12
13
0+
1*!
1;
0:
0<
0]
1=
0^
1^
#4300
0!
02
03
1+
#4350
1!
12
13
0+
1(!
0*!
0)!
1>
0=
0;
1:
1<
1]
0?
0_
0]
0>
1=
1@
0`
1?
1_
1`
0@
#4400
0!
02
03
1+
#4450
1!
12
13
0+
1*!
1;
0:
1]
#4500
0!
02
03
1+
#4550
1!
12
13
0+
0*!
1)!
0;
1:
0<
0]
1<
1]
1>
0=
0>
1=
0?
0_
1?
1_
1@
0`
0@
1`
#4600
0!
02
03
1+
#4650
1!
12
13
0+
1*!
1;
0:
0<
0]
1>
0=
0?
0_
0^
1@
0`
1`
#4700
0!
02
03
1+
#4750
1!
12
13
0+
1&!
0(!
0*!
0)!
0'!
1A
0@
0>
1=
0;
1:
1<
1]
1?
1_
0B
0[
0_
1^
0]
0=
0A
1@
1C
1B
1[
0C
#4800
0!
02
03
1+
#4850
1!
12
13
0+
1*!
1;
0:
1]
0^
1^
#4900
0!
02
03
1+
#4950
1!
12
13
0+
0*!
1)!
0;
1:
0<
0]
1<
1]
1=
0=
#5000
0!
02
03
1+
#5050
1!
12
13
0+
1*!
1;
0:
0<
0]
1=
0^
1^
#5100
0!
02
03
1+
#5150
1!
12
13
0+
1(!
0*!
0)!
1>
0=
0;
1:
1<
1]
1_
0]
0>
1=
0_
#5200
0!
02
03
1+
#5250
1!
12
13
0+
1*!
1;
0:
1]
#5300
0!
02
03
1+
#5350
1!
12
13
0+
0*!
1)!
0;
1:
0<
0]
1<
1]
1>
0=
0>
1=
1_
0_
#5400
0!
02
03
1+
#5450
1!
12
13
0+
1*!
1;
0:
0<
0]
1>
0=
1_
0^
#5500
0!
02
03
1+
#5550
1!
12
13
0+
0(!
0*!
0)!
1'!
0>
1=
0;
1:
1<
1]
0?
0_
1?
1_
1^
0]
0=
1A
0@
0A
1@
0B
0[
1B
1[
1C
0C
#5600
0!
02
03
1+
#5650
1!
12
13
0+
1*!
1;
0:
1]
0^
1^
#5700
0!
02
03
1+
#5750
1!
12
13
0+
0*!
1)!
0;
1:
0<
0]
1<
1]
1=
0=
#5800
0!
02
03
1+
#5850
1!
12
13
0+
1*!
1;
0:
0<
0]
1=
0^
1^
#5900
0!
02
03
1+
#5950
1!
12
13
0+
1(!
0*!
0)!
1>
0=
0;
1:
1<
1]
0?
0_
0]
0>
1=
1A
0@
1?
1_
0B
0[
0A
1@
1C
1B
1[
0C
#6000
0!
02
03
1+
#6050
1!
12
13
0+
1*!
1;
0:
1]
#6100
0!
02
03
1+
#6150
1!
12
13
0+
0*!
1)!
0;
1:
0<
0]
1<
1]
1>
0=
0>
1=
0?
0_
1?
1_
1A
0@
0A
1@
0B
0[
1B
1[
1C
0C
#6200
0!
02
03
1+
#6250
1!
12
13
0+
1*!
1;
0:
0<
0]
1>
0=
0?
0_
0^
1A
0@
0B
0[
0`
1C
0a
1a
1g
0g
#6300
0!
02
03
1+
#6350
1!
12
13
0+
1$!
0&!
0(!
0*!
0)!
0'!
0%!
1D
0C
0A
1@
0>
1=
0;
1:
1<
1]
1?
1_
1B
1[
1E
0[
1`
0_
1^
0]
0=
0@
0D
1C
1e
0`
0E
1f
0e
0f
#6400
0!
02
03
1+
#6450
1!
12
13
0+
1*!
1;
0:
1]
0^
1^
#6500
0!
02
03
1+
#6550
1!
12
13
0+
0*!
1)!
0;
1:
0<
0]
1<
1]
1=
0=
#6600
0!
02
03
1+
#6650
1!
12
13
0+
1*!
1;
0:
0<
0]
1=
0^
1^
#6700
0!
02
03
1+
#6750
1!
12
13
0+
1(!
0*!
0)!
1>
0=
0;
1:
1<
1]
1_
0]
0>
1=
1`
0_
0`
#6800
0!
02
03
1+
#6850
1!
12
13
0+
1*!
1;
0:
1]
#6900
0!
02
03
1+
#6950
1!
12
13
0+
0*!
1)!
0;
1:
0<
0]
1<
1]
1>
0=
0>
1=
1_
0_
1`
0`
#7000
0!
02
03
1+
#7050
1!
12
13
0+
1*!
1;
0:
0<
0]
1>
0=
1_
0^
1`
#7100
0!
02
03
1+
#7150
1!
12
13
0+
0(!
0*!
0)!
1'!
0>
1=
0;
1:
1<
1]
0?
0_
1?
1_
1^
0]
0=
1@
0`
0@
1`
#7200
0!
02
03
1+
#7250
1!
12
13
0+
1*!
1;
0:
1]
0^
1^
#7300
0!
02
03
1+
#7350
1!
12
13
0+
0*!
1)!
0;
1:
0<
0]
1<
1]
1=
0=
#7400
0!
02
03
1+
#7450
1!
12
13
0+
1*!
1;
0:
0<
0]
1=
0^
1^
#7500
0!
02
03
1+
#7550
1!
12
13
0+
1(!
0*!
0)!
1>
0=
0;
1:
1<
1]
0?
0_
0]
0>
1=
1@
0`
1?
1_
1`
0@
#7600
0!
02
03
1+
#7650
1!
12
13
0+
1*!
1;
0:
1]
#7700
0!
02
03
1+
#7750
1!
12
13
0+
0*!
1)!
0;
1:
0<
0]
1<
1]
1>
0=
0>
1=
0?
0_
1?
1_
1@
0`
0@
1`
#7800
0!
02
03
1+
#7850
1!
12
13
0+
1*!
1;
0:
0<
0]
1>
0=
0?
0_
0^
1@
0`
1`
#7900
0!
02
03
1+
#7950
1!
12
13
0+
1&!
0(!
0*!
0)!
0'!
1A
0@
0>
1=
0;
1:
1<
1]
1?
1_
1[
0_
1^
0]
0=
0A
1@
0[
#8000
0!
02
03
1+
#8050
1!
12
13
0+
1*!
1;
0:
1]
0^
1^
#8100
0!
02
03
1+
#8150
1!
12
13
0+
0*!
1)!
0;
1:
0<
0]
1<
1]
1=
0=
#8200
0!
02
03
1+
#8250
1!
12
13
0+
1*!
1;
0:
0<
0]
1=
0^
1^
#8300
0!
02
03
1+
#8350
1!
12
13
0+
1(!
0*!
0)!
1>
0=
0;
1:
1<
1]
1_
0]
0>
1=
0_
#8400
0!
02
03
1+
#8450
1!
12
13
0+
1*!
1;
0:
1]
#8500
0!
02
03
1+
#8550
1!
12
13
0+
0*!
1)!
0;
1:
0<
0]
1<
1]
1>
0=
0>
1=
1_
0_
#8600
0!
02
03
1+
#8650
1!
12
13
0+
1*!
1;
0:
0<
0]
1>
0=
1_
0^
#8700
0!
02
03
1+
#8750
1!
12
13
0+
0(!
0*!
0)!
1'!
0>
1=
0;
1:
1<
1]
0?
0_
1?
1_
1^
0]
0=
1A
0@
0A
1@
1[
0[
#8800
0!
02
03
1+
#8850
1!
12
13
0+
1*!
1;
0:
1]
0^
1^
#8900
0!
02
03
1+
#8950
1!
12
13
0+
0*!
1)!
0;
1:
0<
0]
1<
1]
1=
0=
#9000
0!
02
03
1+
#9050
1!
12
13
0+
1*!
1;
0:
0<
0]
1=
0^
1^
#9100
0!
02
03
1+
#9150
1!
12
13
0+
1(!
0*!
0)!
1>
0=
0;
1:
1<
1]
0?
0_
0]
0>
1=
1A
0@
1?
1_
1[
0A
1@
0[
#9200
0!
02
03
1+
#9250
1!
12
13
0+
1*!
1;
0:
1]
#9300
0!
02
03
1+
#9350
1!
12
13
0+
0*!
1)!
0;
1:
0<
0]
1<
1]
1>
0=
0>
1=
0?
0_
1?
1_
1A
0@
0A
1@
1[
0[
#9400
0!
02
03
1+
#9450
1!
12
13
0+
1*!
1;
0:
0<
0]
1>
0=
0?
0_
0^
1A
0@
1[
0`
#9500
0!
02
03
1+
#9550
1!
12
13
0+
0&!
0(!
0*!
0)!
0'!
1%!
0A
1@
0>
1=
0;
1:
1<
1]
1?
1_
0B
0[
1B
1[
1`
0_
1^
0]
0=
0@
1D
0C
0D
1C
0`
1E
0E
1e
0e
1f
0f
#9600
0!
02
03
1+
#9650
1!
12
13
0+
1*!
1;
0:
1]
0^
1^
#9700
0!
02
03
1+
#9750
1!
12
13
0+
0*!
1)!
0;
1:
0<
0]
1<
1]
1=
0=
#9800
0!
02
03
1+
#9850
1!
12
13
0+
1*!
1;
0:
0<
0]
1=
0^
1^
#9900
0!
02
03
1+
#9950
1!
12
13
0+
1(!
0*!
0)!
1>
0=
0;
1:
1<
1]
1_
0]
0>
1=
1`
0_
0`
#10000
0!
02
03
1+
#10050
1!
12
13
0+
1*!
1;
0:
1]
#10100
0!
02
03
1+
#10150
1!
12
13
0+
0*!
1)!
0;
1:
0<
0]
1<
1]
1>
0=
0>
1=
1_
0_
1`
0`
#10200
0!
02
03
1+
#10250
1!
12
13
0+
1*!
1;
0:
0<
0]
1>
0=
1_
0^
1`
#10300
0!
02
03
1+
#10350
1!
12
13
0+
0(!
0*!
0)!
1'!
0>
1=
0;
1:
1<
1]
0?
0_
1?
1_
1^
0]
0=
1@
0`
0@
1`
#10400
0!
02
03
1+
#10450
1!
12
13
0+
1*!
1;
0:
1]
0^
1^
#10500
0!
02
03
1+
#10550
1!
12
13
0+
0*!
1)!
0;
1:
0<
0]
1<
1]
1=
0=
#10600
0!
02
03
1+
#10650
1!
12
13
0+
1*!
1;
0:
0<
0]
1=
0^
1^
#10700
0!
02
03
1+
#10750
1!
12
13
0+
1(!
0*!
0)!
1>
0=
0;
1:
1<
1]
0?
0_
0]
0>
1=
1@
0`
1?
1_
1`
0@
#10800
0!
02
03
1+
#10850
1!
12
13
0+
1*!
1;
0:
1]
#10900
0!
02
03
1+
#10950
1!
12
13
0+
0*!
1)!
0;
1:
0<
0]
1<
1]
1>
0=
0>
1=
0?
0_
1?
1_
1@
0`
0@
1`
#11000
0!
02
03
1+
#11050
1!
12
13
0+
1*!
1;
0:
0<
0]
1>
0=
0?
0_
0^
1@
0`
1`
#11100
0!
02
03
1+
#11150
1!
12
13
0+
1&!
0(!
0*!
0)!
0'!
1A
0@
0>
1=
0;
1:
1<
1]
1?
1_
0B
0[
0_
1^
0]
0=
0A
1@
1D
0C
1B
1[
1E
0D
1C
1e
0E
1f
0e
0f
#11200
0!
02
03
1+
#11250
1!
12
13
0+
1*!
1;
0:
1]
0^
1^
#11300
0!
02
03
1+
#11350
1!
12
13
0+
0*!
1)!
0;
1:
0<
0]
1<
1]
1=
0=
#11400
0!
02
03
1+
#11450
1!
12
13
0+
1*!
1;
0:
0<
0]
1=
0^
1^
#11500
0!
02
03
1+
#11550
1!
12
13
0+
1(!
0*!
0)!
1>
0=
0;
1:
1<
1]
1_
0]
0>
1=
0_
#11600
0!
02
03
1+
#11650
1!
12
13
0+
1*!
1;
0:
1]
#11700
0!
02
03
1+
#11750
1!
12
13
0+
0*!
1)!
0;
1:
0<
0]
1<
1]
1>
0=
0>
1=
1_
0_
#11800
0!
02
03
1+
#11850
1!
12
13
0+
1*!
1;
0:
0<
0]
1>
0=
1_
0^
#11900
0!
02
03
1+
#11950
1!
12
13
0+
0(!
0*!
0)!
1'!
0>
1=
0;
1:
1<
1]
0?
0_
1?
1_
1^
0]
0=
1A
0@
0A
1@
0B
0[
1B
1[
1D
0C
0D
1C
1E
0E
1e
0e
1f
0f
#12000
0!
02
03
1+
#12050
1!
12
13
0+
1*!
1;
0:
1]
0^
1^
#12100
0!
02
03
1+
#12150
1!
12
13
0+
0*!
1)!
0;
1:
0<
0]
1<
1]
1=
0=
#12200
0!
02
03
1+
#12250
1!
12
13
0+
1*!
1;
0:
0<
0]
1=
0^
1^
#12300
0!
02
03
1+
#12350
1!
12
13
0+
1(!
0*!
0)!
1>
0=
0;
1:
1<
1]
0?
0_
0]
0>
1=
1A
0@
1?
1_
0B
0[
0A
1@
1D
0C
1B
1[
1E
0D
1C
1e
0E
1f
0e
0f
#12400
0!
02
03
1+
#12450
1!
12
13
0+
1*!
1;
0:
1]
#12500
0!
02
03
1+
#12550
1!
12
13
0+
0*!
1)!
0;
1:
0<
0]
1<
1]
1>
0=
0>
1=
0?
0_
1?
1_
1A
0@
0A
1@
0B
0[
1B
1[
1D
0C
0D
1C
1E
0E
1e
0e
1f
0f
#12600
0!
02
03
1+
#12650
1!
12
13
0+
1*!
1;
0:
0<
0]
1>
0=
0?
0_
0^
1A
0@
0B
0[
0`
1D
0C
1E
0a
1e
1g
1f
0g
#12700
0!
02
03
1+
#12750
1!
12
13
0+
1#!
0$!
0&!
0(!
0*!
0)!
0'!
0%!
0F
0E
0D
1C
0A
1@
0>
1=
0;
1:
1<
1]
1?
1_
1B
1[
1G
0e
1F
1E
1a
0[
1`
0_
1^
0]
0=
0@
0C
1e
0f
0G
0`
1f
#12800
0!
02
03
1+
#12850
1!
12
13
0+
1*!
1;
0:
1]
0^
1^
0a
1a
#12900
0!
02
03
1+
#12950
1!
12
13
0+
0*!
1)!
0;
1:
0<
0]
1<
1]
1=
0=
#13000
0!
02
03
1+
#13050
1!
12
13
0+
1*!
1;
0:
0<
0]
1=
0^
1^
0a
1a
#13100
0!
02
03
1+
#13150
1!
12
13
0+
1(!
0*!
0)!
1>
0=
0;
1:
1<
1]
1_
0]
0>
1=
1`
0_
0`
#13200
0!
02
03
1+
#13250
1!
12
13
0+
1*!
1;
0:
1]
#13300
0!
02
03
1+
#13350
1!
12
13
0+
0*!
1)!
0;
1:
0<
0]
1<
1]
1>
0=
0>
1=
1_
0_
1`
0`
#13400
0!
02
03
1+
#13450
1!
12
13
0+
1*!
1;
0:
0<
0]
1>
0=
1_
0^
1`
0a
1a
#13500
0!
02
03
1+
#13550
1!
12
13
0+
0(!
0*!
0)!
1'!
0>
1=
0;
1:
1<
1]
0?
0_
1?
1_
1^
0]
0=
1@
0`
0@
1`
#13600
0!
02
03
1+
#13650
1!
12
13
0+
1*!
1;
0:
1]
0^
1^
#13700
0!
02
03
1+
#13750
1!
12
13
0+
0*!
1)!
0;
1:
0<
0]
1<
1]
1=
0=
#13800
0!
02
03
1+
#13850
1!
12
13
0+
1*!
1;
0:
0<
0]
1=
0^
1^
#13900
0!
02
03
1+
#13950
1!
12
13
0+
1(!
0*!
0)!
1>
0=
0;
1:
1<
1]
0?
0_
0]
0>
1=
1@
0`
1?
1_
1`
0@
#14000
0!
02
03
1+
#14050
1!
12
13
0+
1*!
1;
0:
1]
#14100
0!
02
03
1+
#14150
1!
12
13
0+
0*!
1)!
0;
1:
0<
0]
1<
1]
1>
0=
0>
1=
0?
0_
1?
1_
1@
0`
0@
1`
#14200
0!
02
03
1+
#14250
1!
12
13
0+
1*!
1;
0:
0<
0]
1>
0=
0?
0_
0^
1@
0`
1`
0a
1a
#14300
0!
02
03
1+
#14350
1!
12
13
0+
1&!
0(!
0*!
0)!
0'!
1A
0@
0>
1=
0;
1:
1<
1]
1?
1_
1[
0_
1^
0]
0=
0A
1@
0[
#14400
0!
02
03
1+
#14450
1!
12
13
0+
1*!
1;
0:
1]
0^
1^
#14500
0!
02
03
1+
#14550
1!
12
13
0+
0*!
1)!
0;
1:
0<
0]
1<
1]
1=
0=
#14600
0!
02
03
1+
#14650
1!
12
13
0+
1*!
1;
0:
0<
0]
1=
0^
1^
#14700
0!
02
03
1+
#14750
1!
12
13
0+
1(!
0*!
0)!
1>
0=
0;
1:
1<
1]
1_
0]
0>
1=
0_
#14800
0!
02
03
1+
#14850
1!
12
13
0+
1*!
1;
0:
1]
#14900
0!
02
03
1+
#14950
1!
12
13
0+
0*!
1)!
0;
1:
0<
0]
1<
1]
1>
0=
0>
1=
1_
0_
#15000
0!
02
03
1+
#15050
1!
12
13
0+
1*!
1;
0:
0<
0]
1>
0=
1_
0^
#15100
0!
02
03
1+
#15150
1!
12
13
0+
0(!
0*!
0)!
1'!
0>
1=
0;
1:
1<
1]
0?
0_
1?
1_
1^
0]
0=
1A
0@
0A
1@
1[
0[
#15200
0!
02
03
1+
#15250
1!
12
13
0+
1*!
1;
0:
1]
0^
1^
#15300
0!
02
03
1+
#15350
1!
12
13
0+
0*!
1)!
0;
1:
0<
0]
1<
1]
1=
0=
#15400
0!
02
03
1+
#15450
1!
12
13
0+
1*!
1;
0:
0<
0]
1=
0^
1^
#15500
0!
02
03
1+
#15550
1!
12
13
0+
1(!
0*!
0)!
1>
0=
0;
1:
1<
1]
0?
0_
0]
0>
1=
1A
0@
1?
1_
1[
0A
1@
0[
#15600
0!
02
03
1+
#15650
1!
12
13
0+
1*!
1;
0:
1]
#15700
0!
02
03
1+
#15750
1!
12
13
0+
0*!
1)!
0;
1:
0<
0]
1<
1]
1>
0=
0>
1=
0?
0_
1?
1_
1A
0@
0A
1@
1[
0[
#15800
0!
02
03
1+
#15850
1!
12
13
0+
1*!
1;
0:
0<
0]
1>
0=
0?
0_
0^
1A
0@
1[
0`
#15900
0!
02
03
1+
#15950
1!
12
13
0+
0&!
0(!
0*!
0)!
0'!
1%!
0A
1@
0>
1=
0;
1:
1<
1]
1?
1_
0B
0[
1B
1[
1`
0_
1^
0]
0=
0@
1C
0a
0C
1a
0`
#16000
0!
02
03
1+
#16050
1!
12
13
0+
1*!
1;
0:
1]
0^
1^
#16100
0!
02
03
1+
#16150
1!
12
13
0+
0*!
1)!
0;
1:
0<
0]
1<
1]
1=
0=
#16200
0!
02
03
1+
#16250
1!
12
13
0+
1*!
1;
0:
0<
0]
1=
0^
1^
#16300
0!
02
03
1+
#16350
1!
12
13
0+
1(!
0*!
0)!
1>
0=
0;
1:
1<
1]
1_
0]
0>
1=
1`
0_
0`
#16400
0!
02
03
1+
#16450
1!
12
13
0+
1*!
1;
0:
1]
#16500
0!
02
03
1+
#16550
1!
12
13
0+
0*!
1)!
0;
1:
0<
0]
1<
1]
1>
0=
0>
1=
1_
0_
1`
0`
#16600
0!
02
03
1+
#16650
1!
12
13
0+
1*!
1;
0:
0<
0]
1>
0=
1_
0^
1`
#16700
0!
02
03
1+
#16750
1!
12
13
0+
0(!
0*!
0)!
1'!
0>
1=
0;
1:
1<
1]
0?
0_
1?
1_
1^
0]
0=
1@
0`
0@
1`
#16800
0!
02
03
1+
#16850
1!
12
13
0+
1*!
1;
0:
1]
0^
1^
#16900
0!
02
03
1+
#16950
1!
12
13
0+
0*!
1)!
0;
1:
0<
0]
1<
1]
1=
0=
#17000
0!
02
03
1+
#17050
1!
12
13
0+
1*!
1;
0:
0<
0]
1=
0^
1^
#17100
0!
02
03
1+
#17150
1!
12
13
0+
1(!
0*!
0)!
1>
0=
0;
1:
1<
1]
0?
0_
0]
0>
1=
1@
0`
1?
1_
1`
0@
#17200
0!
02
03
1+
#17250
1!
12
13
0+
1*!
1;
0:
1]
#17300
0!
02
03
1+
#17350
1!
12
13
0+
0*!
1)!
0;
1:
0<
0]
1<
1]
1>
0=
0>
1=
0?
0_
1?
1_
1@
0`
0@
1`
#17400
0!
02
03
1+
#17450
1!
12
13
0+
1*!
1;
0:
0<
0]
1>
0=
0?
0_
0^
1@
0`
1`
#17500
0!
02
03
1+
#17550
1!
12
13
0+
1&!
0(!
0*!
0)!
0'!
1A
0@
0>
1=
0;
1:
1<
1]
1?
1_
0B
0[
0_
1^
0]
0=
0A
1@
1C
1B
1[
0C
#17600
0!
02
03
1+
#17650
1!
12
13
0+
1*!
1;
0:
1]
0^
1^
#17700
0!
02
03
1+
#17750
1!
12
13
0+
0*!
1)!
0;
1:
0<
0]
1<
1]
1=
0=
#17800
0!
02
03
1+
#17850
1!
12
13
0+
1*!
1;
0:
0<
0]
1=
0^
1^
#17900
0!
02
03
1+
#17950
1!
12
13
0+
1(!
0*!
0)!
1>
0=
0;
1:
1<
1]
1_
0]
0>
1=
0_
#18000
0!
02
03
1+
#18050
1!
12
13
0+
1*!
1;
0:
1]
#18100
0!
02
03
1+
#18150
1!
12
13
0+
0*!
1)!
0;
1:
0<
0]
1<
1]
1>
0=
0>
1=
1_
0_
#18200
0!
02
03
1+
