tutoriaisBRABOS/ula/simulation/qsim/unidadeLogicaArt.msim.vcd
$comment
	File created using the following command:
		vcd file unidadeLogicaArt.msim.vcd -direction
$end
$date
	Wed Mar 03 15:13:43 2021
$end
$version
	ModelSim Version 10.1d
$end
$timescale
	1ps
$end
$scope module unidadeLogicaArt_vlg_vec_tst $end
$var reg 4 ! A [3:0] $end
$var reg 4 " B [3:0] $end
$var reg 3 # SEL [2:0] $end
$var wire 1 $ O [3] $end
$var wire 1 % O [2] $end
$var wire 1 & O [1] $end
$var wire 1 ' O [0] $end
$var wire 1 ( sampler $end
$scope module i1 $end
$var wire 1 ) gnd $end
$var wire 1 * vcc $end
$var wire 1 + unknown $end
$var tri1 1 , devclrn $end
$var tri1 1 - devpor $end
$var tri1 1 . devoe $end
$var wire 1 / Add0~0_combout $end
$var wire 1 0 Add0~5_combout $end
$var wire 1 1 Mux1~0_combout $end
$var wire 1 2 Mux0~2_combout $end
$var wire 1 3 Mux0~0_combout $end
$var wire 1 4 Add0~2_cout $end
$var wire 1 5 Add0~3_combout $end
$var wire 1 6 Mux0~4_combout $end
$var wire 1 7 Mux0~1_combout $end
$var wire 1 8 Mux0~5_combout $end
$var wire 1 9 Mux0~3_combout $end
$var wire 1 : Mux4~0_combout $end
$var wire 1 ; Mux1~2_combout $end
$var wire 1 < Add0~4 $end
$var wire 1 = Add0~6_combout $end
$var wire 1 > Mux1~1_combout $end
$var wire 1 ? Mux1~3_combout $end
$var wire 1 @ Mux2~2_combout $end
$var wire 1 A Mux2~0_combout $end
$var wire 1 B Add0~8_combout $end
$var wire 1 C Add0~7 $end
$var wire 1 D Add0~9_combout $end
$var wire 1 E Mux2~1_combout $end
$var wire 1 F Mux2~3_combout $end
$var wire 1 G Mux3~2_combout $end
$var wire 1 H Add0~11_combout $end
$var wire 1 I Add0~10 $end
$var wire 1 J Add0~12_combout $end
$var wire 1 K Mux3~0_combout $end
$var wire 1 L Mux3~1_combout $end
$var wire 1 M Mux3~3_combout $end
$var wire 1 N A~combout [3] $end
$var wire 1 O A~combout [2] $end
$var wire 1 P A~combout [1] $end
$var wire 1 Q A~combout [0] $end
$var wire 1 R B~combout [3] $end
$var wire 1 S B~combout [2] $end
$var wire 1 T B~combout [1] $end
$var wire 1 U B~combout [0] $end
$var wire 1 V SEL~combout [2] $end
$var wire 1 W SEL~combout [1] $end
$var wire 1 X SEL~combout [0] $end
$upscope $end
$upscope $end
$enddefinitions $end
#0
$dumpvars
b1010 !
b100 "
b0 #
0'
1&
1%
1$
x(
0)
1*
x+
1,
1-
1.
0/
00
01
02
03
04
05
06
17
08
09
1:
0;
1<
1=
1>
1?
0@
1A
1B
0C
1D
1E
1F
0G
0H
1I
1J
0K
1L
1M
0Q
1P
0O
1N
0U
0T
1S
0R
0X
0W
0V
$end
#10000
b1 #
1X
0(
1H
1G
0B
1@
1;
14
10
1/
0J
0D
0<
1C
0=
0L
0E
1=
1D
0>
0M
0F
1>
1E
0?
1?
1F
0$
0%
0&
1&
1%
#20000
b11 #
b10 #
0X
1W
1(
0H
0G
1B
0@
0;
04
00
0/
1M
1J
0M
0I
0D
0F
0?
1<
0=
1$
1L
0J
0E
0C
1=
0>
0$
0%
0&
0L
1I
1D
1>
1J
1E
1L
#30000
b11 #
1X
0(
1H
1G
0B
1@
1;
14
10
1/
0J
1M
0D
1F
1?
0<
1C
0=
0L
0E
1=
1D
0>
1$
1%
1&
1>
1E
#40000
b111 #
b101 #
b100 #
0X
0W
1V
1(
0H
0G
1B
0@
0;
04
00
0/
0M
07
1J
0I
0D
1<
0=
1K
0>
11
0$
1L
0J
0C
1=
1>
0?
1M
1I
1D
1?
0&
1J
1$
1&
#50000
b101 #
1X
0(
1H
1G
0B
1@
1;
14
13
10
1/
0J
0D
0<
0K
16
01
1C
0=
0L
1=
18
0>
1D
0M
19
0?
0$
1'
0&
#60000
b111 #
b110 #
0X
1W
1(
0H
0G
1B
0@
0;
04
00
0/
17
1J
0I
0D
1<
0=
1K
0A
1>
11
1L
0J
0E
0C
1=
1?
1M
0F
1I
1D
1&
1J
1$
0%
#70000
b111 #
1X
0(
1H
1G
0B
1@
1;
0:
14
10
1/
0J
0D
0<
1C
0=
z$
z%
z&
z'
1=
1D
#80000
b11 #
b1 #
b0 #
0X
0W
0V
1(
0H
0G
1B
0@
0;
1:
04
03
00
0/
1J
0I
0D
1<
0K
1A
06
01
0=
1$
0%
1&
1'
0J
0C
1=
08
0>
0L
1I
1D
1>
09
0?
0M
1J
1E
1?
0'
0&
1L
1F
0$
1&
1M
1%
1$
#90000
b1 #
1X
0(
1H
1G
0B
1@
1;
14
10
1/
0J
0D
0<
1C
0=
0L
0E
1=
1D
0>
0M
0F
1>
1E
0?
1?
1F
0$
0%
0&
1&
1%
#100000
b11 #
b10 #
0X
1W
1(
0H
0G
1B
0@
0;
04
00
0/
1M
1J
0M
0I
0D
0F
0?
1<
0=
1$
1L
0J
0E
0C
1=
0>
0$
0%
0&
0L
1I
1D
1>
1J
1E
1L
#110000
b11 #
1X
0(
1H
1G
0B
1@
1;
14
10
1/
0J
1M
0D
1F
1?
0<
1C
0=
0L
0E
1=
1D
0>
1$
1%
1&
1>
1E
#120000
b111 #
b101 #
b100 #
0X
0W
1V
1(
0H
0G
1B
0@
0;
04
00
0/
0M
07
1J
0I
0D
1<
0=
1K
0>
11
0$
1L
0J
0C
1=
1>
0?
1M
1I
1D
1?
0&
1J
1$
1&
#130000
b101 #
1X
0(
1H
1G
0B
1@
1;
14
13
10
1/
0J
0D
0<
0K
16
01
1C
0=
0L
1=
18
0>
1D
0M
19
0?
0$
1'
0&
#140000
b111 #
b110 #
0X
1W
1(
0H
0G
1B
0@
0;
04
00
0/
17
1J
0I
0D
1<
0=
1K
0A
1>
11
1L
0J
0E
0C
1=
1?
1M
0F
1I
1D
1&
1J
1$
0%
#150000
b111 #
1X
0(
1H
1G
0B
1@
1;
0:
14
10
1/
0J
0D
0<
1C
0=
z$
z%
z&
z'
1=
1D
#160000
b11 #
b1 #
b0 #
0X
0W
0V
1(
0H
0G
1B
0@
0;
1:
04
03
00
0/
1J
0I
0D
1<
0K
1A
06
01
0=
1$
0%
1&
1'
0J
0C
1=
08
0>
0L
1I
1D
1>
09
0?
0M
1J
1E
1?
0'
0&
1L
1F
0$
1&
1M
1%
1$
#170000
b1 #
1X
0(
1H
1G
0B
1@
1;
14
10
1/
0J
0D
0<
1C
0=
0L
0E
1=
1D
0>
0M
0F
1>
1E
0?
1?
1F
0$
0%
0&
1&
1%
#180000
b11 #
b10 #
0X
1W
1(
0H
0G
1B
0@
0;
04
00
0/
1M
1J
0M
0I
0D
0F
0?
1<
0=
1$
1L
0J
0E
0C
1=
0>
0$
0%
0&
0L
1I
1D
1>
1J
1E
1L
#190000
b11 #
1X
0(
1H
1G
0B
1@
1;
14
10
1/
0J
1M
0D
1F
1?
0<
1C
0=
0L
0E
1=
1D
0>
1$
1%
1&
1>
1E
#200000
b111 #
b101 #
b100 #
0X
0W
1V
1(
0H
0G
1B
0@
0;
04
00
0/
0M
07
1J
0I
0D
1<
0=
1K
0>
11
0$
1L
0J
0C
1=
1>
0?
1M
1I
1D
1?
0&
1J
1$
1&
#210000
b101 #
1X
0(
1H
1G
0B
1@
1;
14
13
10
1/
0J
0D
0<
0K
16
01
1C
0=
0L
1=
18
0>
1D
0M
19
0?
0$
1'
0&
#220000
b111 #
b110 #
0X
1W
1(
0H
0G
1B
0@
0;
04
00
0/
17
1J
0I
0D
1<
0=
1K
0A
1>
11
1L
0J
0E
0C
1=
1?
1M
0F
1I
1D
1&
1J
1$
0%
#230000
b111 #
1X
0(
1H
1G
0B
1@
1;
0:
14
10
1/
0J
0D
0<
1C
0=
z$
z%
z&
z'
1=
1D
#240000
b11 #
b1 #
b0 #
0X
0W
0V
1(
0H
0G
1B
0@
0;
1:
04
03
00
0/
1J
0I
0D
1<
0K
1A
06
01
0=
1$
0%
1&
1'
0J
0C
1=
08
0>
0L
1I
1D
1>
09
0?
0M
1J
1E
1?
0'
0&
1L
1F
0$
1&
1M
1%
1$
#250000
b1 #
1X
0(
1H
1G
0B
1@
1;
14
10
1/
0J
0D
0<
1C
0=
0L
0E
1=
1D
0>
0M
0F
1>
1E
0?
1?
1F
0$
0%
0&
1&
1%
#260000
b11 #
b10 #
0X
1W
1(
0H
0G
1B
0@
0;
04
00
0/
1M
1J
0M
0I
0D
0F
0?
1<
0=
1$
1L
0J
0E
0C
1=
0>
0$
0%
0&
0L
1I
1D
1>
1J
1E
1L
#270000
b11 #
1X
0(
1H
1G
0B
1@
1;
14
10
1/
0J
1M
0D
1F
1?
0<
1C
0=
0L
0E
1=
1D
0>
1$
1%
1&
1>
1E
#280000
b111 #
b101 #
b100 #
0X
0W
1V
1(
0H
0G
1B
0@
0;
04
00
0/
0M
07
1J
0I
0D
1<
0=
1K
0>
11
0$
1L
0J
0C
1=
1>
0?
1M
1I
1D
1?
0&
1J
1$
1&
#290000
b101 #
1X
0(
1H
1G
0B
1@
1;
14
13
10
1/
0J
0D
0<
0K
16
01
1C
0=
0L
1=
18
0>
1D
0M
19
0?
0$
1'
0&
#300000
b111 #
b110 #
0X
1W
1(
0H
0G
1B
0@
0;
04
00
0/
17
1J
0I
0D
1<
0=
1K
0A
1>
11
1L
0J
0E
0C
1=
1?
1M
0F
1I
1D
1&
1J
1$
0%
#310000
b111 #
1X
0(
1H
1G
0B
1@
1;
0:
14
10
1/
0J
0D
0<
1C
0=
z$
z%
z&
z'
1=
1D
#320000
b11 #
b1 #
b0 #
0X
0W
0V
1(
0H
0G
1B
0@
0;
1:
04
03
00
0/
1J
0I
0D
1<
0K
1A
06
01
0=
1$
0%
1&
1'
0J
0C
1=
08
0>
0L
1I
1D
1>
09
0?
0M
1J
1E
1?
0'
0&
1L
1F
0$
1&
1M
1%
1$
#330000
b1 #
1X
0(
1H
1G
0B
1@
1;
14
10
1/
0J
0D
0<
1C
0=
0L
0E
1=
1D
0>
0M
0F
1>
1E
0?
1?
1F
0$
0%
0&
1&
1%
#340000
b11 #
b10 #
0X
1W
1(
0H
0G
1B
0@
0;
04
00
0/
1M
1J
0M
0I
0D
0F
0?
1<
0=
1$
1L
0J
0E
0C
1=
0>
0$
0%
0&
0L
1I
1D
1>
1J
1E
1L
#350000
b11 #
1X
0(
1H
1G
0B
1@
1;
14
10
1/
0J
1M
0D
1F
1?
0<
1C
0=
0L
0E
1=
1D
0>
1$
1%
1&
1>
1E
#360000
b111 #
b101 #
b100 #
0X
0W
1V
1(
0H
0G
1B
0@
0;
04
00
0/
0M
07
1J
0I
0D
1<
0=
1K
0>
11
0$
1L
0J
0C
1=
1>
0?
1M
1I
1D
1?
0&
1J
1$
1&
#370000
b101 #
1X
0(
1H
1G
0B
1@
1;
14
13
10
1/
0J
0D
0<
0K
16
01
1C
0=
0L
1=
18
0>
1D
0M
19
0?
0$
1'
0&
#380000
b111 #
b110 #
0X
1W
1(
0H
0G
1B
0@
0;
04
00
0/
17
1J
0I
0D
1<
0=
1K
0A
1>
11
1L
0J
0E
0C
1=
1?
1M
0F
1I
1D
1&
1J
1$
0%
#390000
b111 #
1X
0(
1H
1G
0B
1@
1;
0:
14
10
1/
0J
0D
0<
1C
0=
z$
z%
z&
z'
1=
1D
#400000
b11 #
b1 #
b0 #
0X
0W
0V
1(
0H
0G
1B
0@
0;
1:
04
03
00
0/
1J
0I
0D
1<
0K
1A
06
01
0=
1$
0%
1&
1'
0J
0C
1=
08
0>
0L
1I
1D
1>
09
0?
0M
1J
1E
1?
0'
0&
1L
1F
0$
1&
1M
1%
1$
#410000
b1 #
1X
0(
1H
1G
0B
1@
1;
14
10
1/
0J
0D
0<
1C
0=
0L
0E
1=
1D
0>
0M
0F
1>
1E
0?
1?
1F
0$
0%
0&
1&
1%
#420000
b11 #
b10 #
0X
1W
1(
0H
0G
1B
0@
0;
04
00
0/
1M
1J
0M
0I
0D
0F
0?
1<
0=
1$
1L
0J
0E
0C
1=
0>
0$
0%
0&
0L
1I
1D
1>
1J
1E
1L
#430000
b11 #
1X
0(
1H
1G
0B
1@
1;
14
10
1/
0J
1M
0D
1F
1?
0<
1C
0=
0L
0E
1=
1D
0>
1$
1%
1&
1>
1E
#440000
b111 #
b101 #
b100 #
0X
0W
1V
1(
0H
0G
1B
0@
0;
04
00
0/
0M
07
1J
0I
0D
1<
0=
1K
0>
11
0$
1L
0J
0C
1=
1>
0?
1M
1I
1D
1?
0&
1J
1$
1&
#450000
b101 #
1X
0(
1H
1G
0B
1@
1;
14
13
10
1/
0J
0D
0<
0K
16
01
1C
0=
0L
1=
18
0>
1D
0M
19
0?
0$
1'
0&
#460000
b111 #
b110 #
0X
1W
1(
0H
0G
1B
0@
0;
04
00
0/
17
1J
0I
0D
1<
0=
1K
0A
1>
11
1L
0J
0E
0C
1=
1?
1M
0F
1I
1D
1&
1J
1$
0%
#470000
b111 #
1X
0(
1H
1G
0B
1@
1;
0:
14
10
1/
0J
0D
0<
1C
0=
z$
z%
z&
z'
1=
1D
#480000
b11 #
b1 #
b0 #
0X
0W
0V
1(
0H
0G
1B
0@
0;
1:
04
03
00
0/
1J
0I
0D
1<
0K
1A
06
01
0=
1$
0%
1&
1'
0J
0C
1=
08
0>
0L
1I
1D
1>
09
0?
0M
1J
1E
1?
0'
0&
1L
1F
0$
1&
1M
1%
1$
#490000
b1 #
1X
0(
1H
1G
0B
1@
1;
14
10
1/
0J
0D
0<
1C
0=
0L
0E
1=
1D
0>
0M
0F
1>
1E
0?
1?
1F
0$
0%
0&
1&
1%
#500000
b11 #
b10 #
0X
1W
1(
0H
0G
1B
0@
0;
04
00
0/
1M
1J
0M
0I
0D
0F
0?
1<
0=
1$
1L
0J
0E
0C
1=
0>
0$
0%
0&
0L
1I
1D
1>
1J
1E
1L
#510000
b11 #
1X
0(
1H
1G
0B
1@
1;
14
10
1/
0J
1M
0D
1F
1?
0<
1C
0=
0L
0E
1=
1D
0>
1$
1%
1&
1>
1E
#520000
b111 #
b101 #
b100 #
0X
0W
1V
1(
0H
0G
1B
0@
0;
04
00
0/
0M
07
1J
0I
0D
1<
0=
1K
0>
11
0$
1L
0J
0C
1=
1>
0?
1M
1I
1D
1?
0&
1J
1$
1&
#530000
b101 #
1X
0(
1H
1G
0B
1@
1;
14
13
10
1/
0J
0D
0<
0K
16
01
1C
0=
0L
1=
18
0>
1D
0M
19
0?
0$
1'
0&
#540000
b111 #
b110 #
0X
1W
1(
0H
0G
1B
0@
0;
04
00
0/
17
1J
0I
0D
1<
0=
1K
0A
1>
11
1L
0J
0E
0C
1=
1?
1M
0F
1I
1D
1&
1J
1$
0%
#550000
b111 #
1X
0(
1H
1G
0B
1@
1;
0:
14
10
1/
0J
0D
0<
1C
0=
z$
z%
z&
z'
1=
1D
#560000
b11 #
b1 #
b0 #
0X
0W
0V
1(
0H
0G
1B
0@
0;
1:
04
03
00
0/
1J
0I
0D
1<
0K
1A
06
01
0=
1$
0%
1&
1'
0J
0C
1=
08
0>
0L
1I
1D
1>
09
0?
0M
1J
1E
1?
0'
0&
1L
1F
0$
1&
1M
1%
1$
#570000
b1 #
1X
0(
1H
1G
0B
1@
1;
14
10
1/
0J
0D
0<
1C
0=
0L
0E
1=
1D
0>
0M
0F
1>
1E
0?
1?
1F
0$
0%
0&
1&
1%
#580000
b11 #
b10 #
0X
1W
1(
0H
0G
1B
0@
0;
04
00
0/
1M
1J
0M
0I
0D
0F
0?
1<
0=
1$
1L
0J
0E
0C
1=
0>
0$
0%
0&
0L
1I
1D
1>
1J
1E
1L
#590000
b11 #
1X
0(
1H
1G
0B
1@
1;
14
10
1/
0J
1M
0D
1F
1?
0<
1C
0=
0L
0E
1=
1D
0>
1$
1%
1&
1>
1E
#600000
b111 #
b101 #
b100 #
0X
0W
1V
1(
0H
0G
1B
0@
0;
04
00
0/
0M
07
1J
0I
0D
1<
0=
1K
0>
11
0$
1L
0J
0C
1=
1>
0?
1M
1I
1D
1?
0&
1J
1$
1&
#610000
b101 #
1X
0(
1H
1G
0B
1@
1;
14
13
10
1/
0J
0D
0<
0K
16
01
1C
0=
0L
1=
18
0>
1D
0M
19
0?
0$
1'
0&
#620000
b111 #
b110 #
0X
1W
1(
0H
0G
1B
0@
0;
04
00
0/
17
1J
0I
0D
1<
0=
1K
0A
1>
11
1L
0J
0E
0C
1=
1?
1M
0F
1I
1D
1&
1J
1$
0%
#630000
b111 #
1X
0(
1H
1G
0B
1@
1;
0:
14
10
1/
0J
0D
0<
1C
0=
z$
z%
z&
z'
1=
1D
#640000
b11 #
b1 #
b0 #
0X
0W
0V
1(
0H
0G
1B
0@
0;
1:
04
03
00
0/
1J
0I
0D
1<
0K
1A
06
01
0=
1$
0%
1&
1'
0J
0C
1=
08
0>
0L
1I
1D
1>
09
0?
0M
1J
1E
1?
0'
0&
1L
1F
0$
1&
1M
1%
1$
#650000
b1 #
1X
0(
1H
1G
0B
1@
1;
14
10
1/
0J
0D
0<
1C
0=
0L
0E
1=
1D
0>
0M
0F
1>
1E
0?
1?
1F
0$
0%
0&
1&
1%
#660000
b11 #
b10 #
0X
1W
1(
0H
0G
1B
0@
0;
04
00
0/
1M
1J
0M
0I
0D
0F
0?
1<
0=
1$
1L
0J
0E
0C
1=
0>
0$
0%
0&
0L
1I
1D
1>
1J
1E
1L
#670000
b11 #
1X
0(
1H
1G
0B
1@
1;
14
10
1/
0J
1M
0D
1F
1?
0<
1C
0=
0L
0E
1=
1D
0>
1$
1%
1&
1>
1E
#680000
b111 #
b101 #
b100 #
0X
0W
1V
1(
0H
0G
1B
0@
0;
04
00
0/
0M
07
1J
0I
0D
1<
0=
1K
0>
11
0$
1L
0J
0C
1=
1>
0?
1M
1I
1D
1?
0&
1J
1$
1&
#690000
b101 #
1X
0(
1H
1G
0B
1@
1;
14
13
10
1/
0J
0D
0<
0K
16
01
1C
0=
0L
1=
18
0>
1D
0M
19
0?
0$
1'
0&
#700000
b111 #
b110 #
0X
1W
1(
0H
0G
1B
0@
0;
04
00
0/
17
1J
0I
0D
1<
0=
1K
0A
1>
11
1L
0J
0E
0C
1=
1?
1M
0F
1I
1D
1&
1J
1$
0%
#710000
b111 #
1X
0(
1H
1G
0B
1@
1;
0:
14
10
1/
0J
0D
0<
1C
0=
z$
z%
z&
z'
1=
1D
#720000
b11 #
b1 #
b0 #
0X
0W
0V
1(
0H
0G
1B
0@
0;
1:
04
03
00
0/
1J
0I
0D
1<
0K
1A
06
01
0=
1$
0%
1&
1'
0J
0C
1=
08
0>
0L
1I
1D
1>
09
0?
0M
1J
1E
1?
0'
0&
1L
1F
0$
1&
1M
1%
1$
#730000
b1 #
1X
0(
1H
1G
0B
1@
1;
14
10
1/
0J
0D
0<
1C
0=
0L
0E
1=
1D
0>
0M
0F
1>
1E
0?
1?
1F
0$
0%
0&
1&
1%
#740000
b11 #
b10 #
0X
1W
1(
0H
0G
1B
0@
0;
04
00
0/
1M
1J
0M
0I
0D
0F
0?
1<
0=
1$
1L
0J
0E
0C
1=
0>
0$
0%
0&
0L
1I
1D
1>
1J
1E
1L
#750000
b11 #
1X
0(
1H
1G
0B
1@
1;
14
10
1/
0J
1M
0D
1F
1?
0<
1C
0=
0L
0E
1=
1D
0>
1$
1%
1&
1>
1E
#760000
b111 #
b101 #
b100 #
0X
0W
1V
1(
0H
0G
1B
0@
0;
04
00
0/
0M
07
1J
0I
0D
1<
0=
1K
0>
11
0$
1L
0J
0C
1=
1>
0?
1M
1I
1D
1?
0&
1J
1$
1&
#770000
b101 #
1X
0(
1H
1G
0B
1@
1;
14
13
10
1/
0J
0D
0<
0K
16
01
1C
0=
0L
1=
18
0>
1D
0M
19
0?
0$
1'
0&
#780000
b111 #
b110 #
0X
1W
1(
0H
0G
1B
0@
0;
04
00
0/
17
1J
0I
0D
1<
0=
1K
0A
1>
11
1L
0J
0E
0C
1=
1?
1M
0F
1I
1D
1&
1J
1$
0%
#790000
b111 #
1X
0(
1H
1G
0B
1@
1;
0:
14
10
1/
0J
0D
0<
1C
0=
z$
z%
z&
z'
1=
1D
#800000
b11 #
b1 #
b0 #
0X
0W
0V
1(
0H
0G
1B
0@
0;
1:
04
03
00
0/
1J
0I
0D
1<
0K
1A
06
01
0=
1$
0%
1&
1'
0J
0C
1=
08
0>
0L
1I
1D
1>
09
0?
0M
1J
1E
1?
0'
0&
1L
1F
0$
1&
1M
1%
1$
#810000
b1 #
1X
0(
1H
1G
0B
1@
1;
14
10
1/
0J
0D
0<
1C
0=
0L
0E
1=
1D
0>
0M
0F
1>
1E
0?
1?
1F
0$
0%
0&
1&
1%
#820000
b11 #
b10 #
0X
1W
1(
0H
0G
1B
0@
0;
04
00
0/
1M
1J
0M
0I
0D
0F
0?
1<
0=
1$
1L
0J
0E
0C
1=
0>
0$
0%
0&
0L
1I
1D
1>
1J
1E
1L
#830000
b11 #
1X
0(
1H
1G
0B
1@
1;
14
10
1/
0J
1M
0D
1F
1?
0<
1C
0=
0L
0E
1=
1D
0>
1$
1%
1&
1>
1E
#840000
b111 #
b101 #
b100 #
0X
0W
1V
1(
0H
0G
1B
0@
0;
04
00
0/
0M
07
1J
0I
0D
1<
0=
1K
0>
11
0$
1L
0J
0C
1=
1>
0?
1M
1I
1D
1?
0&
1J
1$
1&
#850000
b101 #
1X
0(
1H
1G
0B
1@
1;
14
13
10
1/
0J
0D
0<
0K
16
01
1C
0=
0L
1=
18
0>
1D
0M
19
0?
0$
1'
0&
#860000
b111 #
b110 #
0X
1W
1(
0H
0G
1B
0@
0;
04
00
0/
17
1J
0I
0D
1<
0=
1K
0A
1>
11
1L
0J
0E
0C
1=
1?
1M
0F
1I
1D
1&
1J
1$
0%
#870000
b111 #
1X
0(
1H
1G
0B
1@
1;
0:
14
10
1/
0J
0D
0<
1C
0=
z$
z%
z&
z'
1=
1D
#880000
b11 #
b1 #
b0 #
0X
0W
0V
1(
0H
0G
1B
0@
0;
1:
04
03
00
0/
1J
0I
0D
1<
0K
1A
06
01
0=
1$
0%
1&
1'
0J
0C
1=
08
0>
0L
1I
1D
1>
09
0?
0M
1J
1E
1?
0'
0&
1L
1F
0$
1&
1M
1%
1$
#890000
b1 #
1X
0(
1H
1G
0B
1@
1;
14
10
1/
0J
0D
0<
1C
0=
0L
0E
1=
1D
0>
0M
0F
1>
1E
0?
1?
1F
0$
0%
0&
1&
1%
#900000
b11 #
b10 #
0X
1W
1(
0H
0G
1B
0@
0;
04
00
0/
1M
1J
0M
0I
0D
0F
0?
1<
0=
1$
1L
0J
0E
0C
1=
0>
0$
0%
0&
0L
1I
1D
1>
1J
1E
1L
#910000
b11 #
1X
0(
1H
1G
0B
1@
1;
14
10
1/
0J
1M
0D
1F
1?
0<
1C
0=
0L
0E
1=
1D
0>
1$
1%
1&
1>
1E
#920000
b111 #
b101 #
b100 #
0X
0W
1V
1(
0H
0G
1B
0@
0;
04
00
0/
0M
07
1J
0I
0D
1<
0=
1K
0>
11
0$
1L
0J
0C
1=
1>
0?
1M
1I
1D
1?
0&
1J
1$
1&
#930000
b101 #
1X
0(
1H
1G
0B
1@
1;
14
13
10
1/
0J
0D
0<
0K
16
01
1C
0=
0L
1=
18
0>
1D
0M
19
0?
0$
1'
0&
#940000
b111 #
b110 #
0X
1W
1(
0H
0G
1B
0@
0;
04
00
0/
17
1J
0I
0D
1<
0=
1K
0A
1>
11
1L
0J
0E
0C
1=
1?
1M
0F
1I
1D
1&
1J
1$
0%
#950000
b111 #
1X
0(
1H
1G
0B
1@
1;
0:
14
10
1/
0J
0D
0<
1C
0=
z$
z%
z&
z'
1=
1D
#960000
b11 #
b1 #
b0 #
0X
0W
0V
1(
0H
0G
1B
0@
0;
1:
04
03
00
0/
1J
0I
0D
1<
0K
1A
06
01
0=
1$
0%
1&
1'
0J
0C
1=
08
0>
0L
1I
1D
1>
09
0?
0M
1J
1E
1?
0'
0&
1L
1F
0$
1&
1M
1%
1$
#970000
b1 #
1X
0(
1H
1G
0B
1@
1;
14
10
1/
0J
0D
0<
1C
0=
0L
0E
1=
1D
0>
0M
0F
1>
1E
0?
1?
1F
0$
0%
0&
1&
1%
#980000
b11 #
b10 #
0X
1W
1(
0H
0G
1B
0@
0;
04
00
0/
1M
1J
0M
0I
0D
0F
0?
1<
0=
1$
1L
0J
0E
0C
1=
0>
0$
0%
0&
0L
1I
1D
1>
1J
1E
1L
#990000
b11 #
1X
0(
1H
1G
0B
1@
1;
14
10
1/
0J
1M
0D
1F
1?
0<
1C
0=
0L
0E
1=
1D
0>
1$
1%
1&
1>
1E
