BCD_7Seg/simulation/qsim/BCD_7Seg.msim.vcd
$comment
	File created using the following command:
		vcd file BCD_7Seg.msim.vcd -direction
$end
$date
	Thu Mar 04 16:12:21 2021
$end
$version
	ModelSim Version 10.1d
$end
$timescale
	1ps
$end
$scope module BCD_7Seg_vlg_vec_tst $end
$var reg 4 ! X [3:0] $end
$var wire 1 " SeteSeg [7] $end
$var wire 1 # SeteSeg [6] $end
$var wire 1 $ SeteSeg [5] $end
$var wire 1 % SeteSeg [4] $end
$var wire 1 & SeteSeg [3] $end
$var wire 1 ' SeteSeg [2] $end
$var wire 1 ( SeteSeg [1] $end
$var wire 1 ) SeteSeg [0] $end
$var wire 1 * sampler $end
$scope module i1 $end
$var wire 1 + gnd $end
$var wire 1 , vcc $end
$var wire 1 - unknown $end
$var tri1 1 . devclrn $end
$var tri1 1 / devpor $end
$var tri1 1 0 devoe $end
$var wire 1 1 Mux7~0_combout $end
$var wire 1 2 Mux6~0_combout $end
$var wire 1 3 Mux5~0_combout $end
$var wire 1 4 Mux4~0_combout $end
$var wire 1 5 Mux3~0_combout $end
$var wire 1 6 Mux2~0_combout $end
$var wire 1 7 Mux1~0_combout $end
$var wire 1 8 Mux0~0_combout $end
$var wire 1 9 X~combout [3] $end
$var wire 1 : X~combout [2] $end
$var wire 1 ; X~combout [1] $end
$var wire 1 < X~combout [0] $end
$upscope $end
$upscope $end
$enddefinitions $end
#0
$dumpvars
b0 !
0)
0(
1'
1&
1%
1$
1#
1"
x*
0+
1,
x-
1.
1/
10
11
02
03
04
05
06
07
08
0<
0;
0:
09
$end
#5000
b1 !
1<
0*
18
15
14
13
0"
0%
0&
0'
#10000
b11 !
b10 !
0<
1;
1*
08
16
05
04
12
1(
1"
0$
1%
1&
#15000
b11 !
1<
0*
06
14
1$
0&
#20000
b111 !
b101 !
b100 !
0<
0;
1:
1*
18
15
03
0"
0%
1'
#25000
b101 !
1<
0*
08
17
05
1"
0#
1%
#30000
b111 !
b110 !
0<
1;
1*
04
1&
#35000
b111 !
1<
0*
07
15
14
13
02
0(
1#
0%
0&
0'
#40000
b1111 !
b1011 !
b1001 !
b1000 !
0<
0;
0:
19
1*
05
04
03
12
1(
1%
1&
1'
#45000
b1001 !
1<
0*
14
0&
#50000
b1011 !
b1010 !
0<
1;
1*
17
16
04
01
0#
0$
1&
1)
#55000
b1011 !
1<
0*
#60000
b1111 !
b1101 !
b1100 !
0<
0;
1:
1*
#65000
b1101 !
1<
0*
#70000
b1111 !
b1110 !
0<
1;
1*
#75000
b1111 !
1<
0*
#80000
b111 !
b11 !
b1 !
b0 !
0<
0;
0:
09
1*
07
06
02
11
0(
1#
1$
0)
#85000
b1 !
1<
0*
18
15
14
13
0"
0%
0&
0'
#90000
b11 !
b10 !
0<
1;
1*
08
16
05
04
12
1(
1"
0$
1%
1&
#95000
b11 !
1<
0*
06
14
1$
0&
#100000
b111 !
b101 !
b100 !
0<
0;
1:
1*
18
15
03
0"
0%
1'
#105000
b101 !
1<
0*
08
17
05
1"
0#
1%
#110000
b111 !
b110 !
0<
1;
1*
04
1&
#115000
b111 !
1<
0*
07
15
14
13
02
0(
1#
0%
0&
0'
#120000
b1111 !
b1011 !
b1001 !
b1000 !
0<
0;
0:
19
1*
05
04
03
12
1(
1%
1&
1'
#125000
b1001 !
1<
0*
14
0&
#130000
b1011 !
b1010 !
0<
1;
1*
17
16
04
01
0#
0$
1&
1)
#135000
b1011 !
1<
0*
#140000
b1111 !
b1101 !
b1100 !
0<
0;
1:
1*
#145000
b1101 !
1<
0*
#150000
b1111 !
b1110 !
0<
1;
1*
#155000
b1111 !
1<
0*
#160000
b111 !
b11 !
b1 !
b0 !
0<
0;
0:
09
1*
07
06
02
11
0(
1#
1$
0)
#165000
b1 !
1<
0*
18
15
14
13
0"
0%
0&
0'
#170000
b11 !
b10 !
0<
1;
1*
08
16
05
04
12
1(
1"
0$
1%
1&
#175000
b11 !
1<
0*
06
14
1$
0&
#180000
b111 !
b101 !
b100 !
0<
0;
1:
1*
18
15
03
0"
0%
1'
#185000
b101 !
1<
0*
08
17
05
1"
0#
1%
#190000
b111 !
b110 !
0<
1;
1*
04
1&
#195000
b111 !
1<
0*
07
15
14
13
02
0(
1#
0%
0&
0'
#200000
b1111 !
b1011 !
b1001 !
b1000 !
0<
0;
0:
19
1*
05
04
03
12
1(
1%
1&
1'
#205000
b1001 !
1<
0*
14
0&
#210000
b1011 !
b1010 !
0<
1;
1*
17
16
04
01
0#
0$
1&
1)
#215000
b1011 !
1<
0*
#220000
b1111 !
b1101 !
b1100 !
0<
0;
1:
1*
#225000
b1101 !
1<
0*
#230000
b1111 !
b1110 !
0<
1;
1*
#235000
b1111 !
1<
0*
#240000
b111 !
b11 !
b1 !
b0 !
0<
0;
0:
09
1*
07
06
02
11
0(
1#
1$
0)
#245000
b1 !
1<
0*
18
15
14
13
0"
0%
0&
0'
#250000
b11 !
b10 !
0<
1;
1*
08
16
05
04
12
1(
1"
0$
1%
1&
#255000
b11 !
1<
0*
06
14
1$
0&
#260000
b111 !
b101 !
b100 !
0<
0;
1:
1*
18
15
03
0"
0%
1'
#265000
b101 !
1<
0*
08
17
05
1"
0#
1%
#270000
b111 !
b110 !
0<
1;
1*
04
1&
#275000
b111 !
1<
0*
07
15
14
13
02
0(
1#
0%
0&
0'
#280000
b1111 !
b1011 !
b1001 !
b1000 !
0<
0;
0:
19
1*
05
04
03
12
1(
1%
1&
1'
#285000
b1001 !
1<
0*
14
0&
#290000
b1011 !
b1010 !
0<
1;
1*
17
16
04
01
0#
0$
1&
1)
#295000
b1011 !
1<
0*
#300000
b1111 !
b1101 !
b1100 !
0<
0;
1:
1*
#305000
b1101 !
1<
0*
#310000
b1111 !
b1110 !
0<
1;
1*
#315000
b1111 !
1<
0*
#320000
b111 !
b11 !
b1 !
b0 !
0<
0;
0:
09
1*
07
06
02
11
0(
1#
1$
0)
#325000
b1 !
1<
0*
18
15
14
13
0"
0%
0&
0'
#330000
b11 !
b10 !
0<
1;
1*
08
16
05
04
12
1(
1"
0$
1%
1&
#335000
b11 !
1<
0*
06
14
1$
0&
#340000
b111 !
b101 !
b100 !
0<
0;
1:
1*
18
15
03
0"
0%
1'
#345000
b101 !
1<
0*
08
17
05
1"
0#
1%
#350000
b111 !
b110 !
0<
1;
1*
04
1&
#355000
b111 !
1<
0*
07
15
14
13
02
0(
1#
0%
0&
0'
#360000
b1111 !
b1011 !
b1001 !
b1000 !
0<
0;
0:
19
1*
05
04
03
12
1(
1%
1&
1'
#365000
b1001 !
1<
0*
14
0&
#370000
b1011 !
b1010 !
0<
1;
1*
17
16
04
01
0#
0$
1&
1)
#375000
b1011 !
1<
0*
#380000
b1111 !
b1101 !
b1100 !
0<
0;
1:
1*
#385000
b1101 !
1<
0*
#390000
b1111 !
b1110 !
0<
1;
1*
#395000
b1111 !
1<
0*
#400000
b111 !
b11 !
b1 !
b0 !
0<
0;
0:
09
1*
07
06
02
11
0(
1#
1$
0)
#405000
b1 !
1<
0*
18
15
14
13
0"
0%
0&
0'
#410000
b11 !
b10 !
0<
1;
1*
08
16
05
04
12
1(
1"
0$
1%
1&
#415000
b11 !
1<
0*
06
14
1$
0&
#420000
b111 !
b101 !
b100 !
0<
0;
1:
1*
18
15
03
0"
0%
1'
#425000
b101 !
1<
0*
08
17
05
1"
0#
1%
#430000
b111 !
b110 !
0<
1;
1*
04
1&
#435000
b111 !
1<
0*
07
15
14
13
02
0(
1#
0%
0&
0'
#440000
b1111 !
b1011 !
b1001 !
b1000 !
0<
0;
0:
19
1*
05
04
03
12
1(
1%
1&
1'
#445000
b1001 !
1<
0*
14
0&
#450000
b1011 !
b1010 !
0<
1;
1*
17
16
04
01
0#
0$
1&
1)
#455000
b1011 !
1<
0*
#460000
b1111 !
b1101 !
b1100 !
0<
0;
1:
1*
#465000
b1101 !
1<
0*
#470000
b1111 !
b1110 !
0<
1;
1*
#475000
b1111 !
1<
0*
#480000
b111 !
b11 !
b1 !
b0 !
0<
0;
0:
09
1*
07
06
02
11
0(
1#
1$
0)
#485000
b1 !
1<
0*
18
15
14
13
0"
0%
0&
0'
#490000
b11 !
b10 !
0<
1;
1*
08
16
05
04
12
1(
1"
0$
1%
1&
#495000
b11 !
1<
0*
06
14
1$
0&
#500000
b111 !
b101 !
b100 !
0<
0;
1:
1*
18
15
03
0"
0%
1'
#505000
b101 !
1<
0*
08
17
05
1"
0#
1%
#510000
b111 !
b110 !
0<
1;
1*
04
1&
#515000
b111 !
1<
0*
07
15
14
13
02
0(
1#
0%
0&
0'
#520000
b1111 !
b1011 !
b1001 !
b1000 !
0<
0;
0:
19
1*
05
04
03
12
1(
1%
1&
1'
#525000
b1001 !
1<
0*
14
0&
#530000
b1011 !
b1010 !
0<
1;
1*
17
16
04
01
0#
0$
1&
1)
#535000
b1011 !
1<
0*
#540000
b1111 !
b1101 !
b1100 !
0<
0;
1:
1*
#545000
b1101 !
1<
0*
#550000
b1111 !
b1110 !
0<
1;
1*
#555000
b1111 !
1<
0*
#560000
b111 !
b11 !
b1 !
b0 !
0<
0;
0:
09
1*
07
06
02
11
0(
1#
1$
0)
#565000
b1 !
1<
0*
18
15
14
13
0"
0%
0&
0'
#570000
b11 !
b10 !
0<
1;
1*
08
16
05
04
12
1(
1"
0$
1%
1&
#575000
b11 !
1<
0*
06
14
1$
0&
#580000
b111 !
b101 !
b100 !
0<
0;
1:
1*
18
15
03
0"
0%
1'
#585000
b101 !
1<
0*
08
17
05
1"
0#
1%
#590000
b111 !
b110 !
0<
1;
1*
04
1&
#595000
b111 !
1<
0*
07
15
14
13
02
0(
1#
0%
0&
0'
#600000
b1111 !
b1011 !
b1001 !
b1000 !
0<
0;
0:
19
1*
05
04
03
12
1(
1%
1&
1'
#605000
b1001 !
1<
0*
14
0&
#610000
b1011 !
b1010 !
0<
1;
1*
17
16
04
01
0#
0$
1&
1)
#615000
b1011 !
1<
0*
#620000
b1111 !
b1101 !
b1100 !
0<
0;
1:
1*
#625000
b1101 !
1<
0*
#630000
b1111 !
b1110 !
0<
1;
1*
#635000
b1111 !
1<
0*
#640000
b111 !
b11 !
b1 !
b0 !
0<
0;
0:
09
1*
07
06
02
11
0(
1#
1$
0)
#645000
b1 !
1<
0*
18
15
14
13
0"
0%
0&
0'
#650000
b11 !
b10 !
0<
1;
1*
08
16
05
04
12
1(
1"
0$
1%
1&
#655000
b11 !
1<
0*
06
14
1$
0&
#660000
b111 !
b101 !
b100 !
0<
0;
1:
1*
18
15
03
0"
0%
1'
#665000
b101 !
1<
0*
08
17
05
1"
0#
1%
#670000
b111 !
b110 !
0<
1;
1*
04
1&
#675000
b111 !
1<
0*
07
15
14
13
02
0(
1#
0%
0&
0'
#680000
b1111 !
b1011 !
b1001 !
b1000 !
0<
0;
0:
19
1*
05
04
03
12
1(
1%
1&
1'
#685000
b1001 !
1<
0*
14
0&
#690000
b1011 !
b1010 !
0<
1;
1*
17
16
04
01
0#
0$
1&
1)
#695000
b1011 !
1<
0*
#700000
b1111 !
b1101 !
b1100 !
0<
0;
1:
1*
#705000
b1101 !
1<
0*
#710000
b1111 !
b1110 !
0<
1;
1*
#715000
b1111 !
1<
0*
#720000
b111 !
b11 !
b1 !
b0 !
0<
0;
0:
09
1*
07
06
02
11
0(
1#
1$
0)
#725000
b1 !
1<
0*
18
15
14
13
0"
0%
0&
0'
#730000
b11 !
b10 !
0<
1;
1*
08
16
05
04
12
1(
1"
0$
1%
1&
#735000
b11 !
1<
0*
06
14
1$
0&
#740000
b111 !
b101 !
b100 !
0<
0;
1:
1*
18
15
03
0"
0%
1'
#745000
b101 !
1<
0*
08
17
05
1"
0#
1%
#750000
b111 !
b110 !
0<
1;
1*
04
1&
#755000
b111 !
1<
0*
07
15
14
13
02
0(
1#
0%
0&
0'
#760000
b1111 !
b1011 !
b1001 !
b1000 !
0<
0;
0:
19
1*
05
04
03
12
1(
1%
1&
1'
#765000
b1001 !
1<
0*
14
0&
#770000
b1011 !
b1010 !
0<
1;
1*
17
16
04
01
0#
0$
1&
1)
#775000
b1011 !
1<
0*
#780000
b1111 !
b1101 !
b1100 !
0<
0;
1:
1*
#785000
b1101 !
1<
0*
#790000
b1111 !
b1110 !
0<
1;
1*
#795000
b1111 !
1<
0*
#800000
b111 !
b11 !
b1 !
b0 !
0<
0;
0:
09
1*
07
06
02
11
0(
1#
1$
0)
#805000
b1 !
1<
0*
18
15
14
13
0"
0%
0&
0'
#810000
b11 !
b10 !
0<
1;
1*
08
16
05
04
12
1(
1"
0$
1%
1&
#815000
b11 !
1<
0*
06
14
1$
0&
#820000
b111 !
b101 !
b100 !
0<
0;
1:
1*
18
15
03
0"
0%
1'
#825000
b101 !
1<
0*
08
17
05
1"
0#
1%
#830000
b111 !
b110 !
0<
1;
1*
04
1&
#835000
b111 !
1<
0*
07
15
14
13
02
0(
1#
0%
0&
0'
#840000
b1111 !
b1011 !
b1001 !
b1000 !
0<
0;
0:
19
1*
05
04
03
12
1(
1%
1&
1'
#845000
b1001 !
1<
0*
14
0&
#850000
b1011 !
b1010 !
0<
1;
1*
17
16
04
01
0#
0$
1&
1)
#855000
b1011 !
1<
0*
#860000
b1111 !
b1101 !
b1100 !
0<
0;
1:
1*
#865000
b1101 !
1<
0*
#870000
b1111 !
b1110 !
0<
1;
1*
#875000
b1111 !
1<
0*
#880000
b111 !
b11 !
b1 !
b0 !
0<
0;
0:
09
1*
07
06
02
11
0(
1#
1$
0)
#885000
b1 !
1<
0*
18
15
14
13
0"
0%
0&
0'
#890000
b11 !
b10 !
0<
1;
1*
08
16
05
04
12
1(
1"
0$
1%
1&
#895000
b11 !
1<
0*
06
14
1$
0&
#900000
b111 !
b101 !
b100 !
0<
0;
1:
1*
18
15
03
0"
0%
1'
#905000
b101 !
1<
0*
08
17
05
1"
0#
1%
#910000
b111 !
b110 !
0<
1;
1*
04
1&
#915000
b111 !
1<
0*
07
15
14
13
02
0(
1#
0%
0&
0'
#920000
b1111 !
b1011 !
b1001 !
b1000 !
0<
0;
0:
19
1*
05
04
03
12
1(
1%
1&
1'
#925000
b1001 !
1<
0*
14
0&
#930000
b1011 !
b1010 !
0<
1;
1*
17
16
04
01
0#
0$
1&
1)
#935000
b1011 !
1<
0*
#940000
b1111 !
b1101 !
b1100 !
0<
0;
1:
1*
#945000
b1101 !
1<
0*
#950000
b1111 !
b1110 !
0<
1;
1*
#955000
b1111 !
1<
0*
#960000
b111 !
b11 !
b1 !
b0 !
0<
0;
0:
09
1*
07
06
02
11
0(
1#
1$
0)
#965000
b1 !
1<
0*
18
15
14
13
0"
0%
0&
0'
#970000
b11 !
b10 !
0<
1;
1*
08
16
05
04
12
1(
1"
0$
1%
1&
#975000
b11 !
1<
0*
06
14
1$
0&
#980000
b111 !
b101 !
b100 !
0<
0;
1:
1*
18
15
03
0"
0%
1'
#985000
b101 !
1<
0*
08
17
05
1"
0#
1%
#990000
b111 !
b110 !
0<
1;
1*
04
1&
#995000
b111 !
1<
0*
07
15
14
13
02
0(
1#
0%
0&
0'
