cont3_sinais/simulation/qsim/cont3.msim.vcd
$comment
	File created using the following command:
		vcd file cont3.msim.vcd -direction
$end
$date
	Sun Mar 28 12:50:14 2021
$end
$version
	ModelSim Version 10.1d
$end
$timescale
	1ps
$end
$scope module cont3_vlg_vec_tst $end
$var reg 1 ! CLK $end
$var reg 1 " CLR $end
$var reg 1 # EN $end
$var reg 1 $ LD $end
$var reg 3 % LOAD [2:0] $end
$var reg 1 & RST $end
$var wire 1 ' Q [2] $end
$var wire 1 ( Q [1] $end
$var wire 1 ) Q [0] $end
$var wire 1 * sampler $end
$scope module i1 $end
$var wire 1 + gnd $end
$var wire 1 , vcc $end
$var wire 1 - unknown $end
$var tri1 1 . devclrn $end
$var tri1 1 / devpor $end
$var tri1 1 0 devoe $end
$var wire 1 1 CLR~combout $end
$var wire 1 2 CLK~combout $end
$var wire 1 3 CLK~clkctrl_outclk $end
$var wire 1 4 LD~combout $end
$var wire 1 5 CONT~0_combout $end
$var wire 1 6 RST~combout $end
$var wire 1 7 RST~clkctrl_outclk $end
$var wire 1 8 EN~combout $end
$var wire 1 9 CONT[0]~1_combout $end
$var wire 1 : CONT~2_combout $end
$var wire 1 ; CONT~3_combout $end
$var wire 1 < Add0~0_combout $end
$var wire 1 = CONT~4_combout $end
$var wire 1 > LOAD~combout [2] $end
$var wire 1 ? LOAD~combout [1] $end
$var wire 1 @ LOAD~combout [0] $end
$var wire 1 A CONT [2] $end
$var wire 1 B CONT [1] $end
$var wire 1 C CONT [0] $end
$upscope $end
$upscope $end
$enddefinitions $end
#0
$dumpvars
0!
0"
0#
0$
bx %
x&
0)
0(
0'
x*
0+
1,
x-
1.
1/
10
01
02
03
04
15
x6
x7
08
09
0:
0;
0<
0=
x@
x?
x>
0C
0B
0A
$end
#5000
1!
12
13
0*
#10000
1#
0!
18
02
03
1*
19
#15000
1!
12
13
0*
1C
1:
05
1)
1;
#20000
0#
0!
08
02
03
1*
09
#25000
1!
12
13
0*
#30000
1#
0!
18
02
03
1*
19
#35000
1!
12
13
0*
1B
0C
15
1(
0)
#40000
0#
0!
08
02
03
1*
09
#45000
1!
12
13
0*
#50000
1#
0!
18
02
03
1*
19
#55000
1!
12
13
0*
1C
1<
0:
05
1)
1=
0;
#60000
0#
0!
08
02
03
1*
09
#65000
1!
12
13
0*
#70000
1#
0!
18
02
03
1*
19
#75000
1!
12
13
0*
1A
0B
0C
15
1'
0(
0)
#80000
0#
0!
08
02
03
1*
09
#85000
1!
12
13
0*
#90000
1#
0!
18
02
03
1*
19
#95000
1!
12
13
0*
1C
1:
05
1)
1;
#100000
0#
0!
08
02
03
1*
09
#105000
1!
12
13
0*
#110000
1#
0!
18
02
03
1*
19
#115000
1!
12
13
0*
1B
0C
15
1(
0)
#120000
0#
0!
08
02
03
1*
09
#125000
1!
12
13
0*
#130000
1#
0!
18
02
03
1*
19
#135000
1!
12
13
0*
1C
0<
0:
05
1)
0=
0;
#140000
0#
0!
08
02
03
1*
09
#145000
1!
12
13
0*
#150000
1#
0!
18
02
03
1*
19
#155000
1!
12
13
0*
0A
0B
0C
15
0'
0(
0)
#160000
1"
0#
0!
11
08
02
03
1*
05
#165000
1!
12
13
0*
#170000
1#
0!
18
02
03
1*
#175000
1!
12
13
0*
#180000
0#
0!
08
02
03
1*
#185000
1!
12
13
0*
#190000
1#
0!
18
02
03
1*
#195000
1!
12
13
0*
#200000
0#
0!
08
02
03
1*
#205000
1!
12
13
0*
#210000
1#
0!
18
02
03
1*
#215000
1!
12
13
0*
#220000
0#
0!
08
02
03
1*
#225000
1!
12
13
0*
#230000
1#
0!
18
02
03
1*
#235000
1!
12
13
0*
#240000
0#
0!
08
02
03
1*
#245000
1!
12
13
0*
#250000
1#
0!
18
02
03
1*
#255000
1!
12
13
0*
#260000
0#
0!
08
02
03
1*
#265000
1!
12
13
0*
#270000
1#
0!
18
02
03
1*
#275000
1!
12
13
0*
#280000
0#
0!
08
02
03
1*
#285000
1!
12
13
0*
#290000
1#
0!
18
02
03
1*
#295000
1!
12
13
0*
#300000
0#
0!
08
02
03
1*
#305000
1!
12
13
0*
#310000
1#
0!
18
02
03
1*
#315000
1!
12
13
0*
#320000
0"
0#
0!
01
08
02
03
1*
09
15
#325000
1!
12
13
0*
#330000
1#
0!
18
02
03
1*
19
#335000
1!
12
13
0*
1C
1:
05
1)
1;
#340000
0#
0!
08
02
03
1*
09
#345000
1!
12
13
0*
#350000
1#
0!
18
02
03
1*
19
#355000
1!
12
13
0*
1B
0C
15
1(
0)
#360000
0#
0!
08
02
03
1*
09
#365000
1!
12
13
0*
#370000
1#
0!
18
02
03
1*
19
#375000
1!
12
13
0*
1C
1<
0:
05
1)
1=
0;
#380000
0#
0!
08
02
03
1*
09
#385000
1!
12
13
0*
#390000
1#
0!
18
02
03
1*
19
#395000
1!
12
13
0*
1A
0B
0C
15
1'
0(
0)
#400000
0#
0!
08
02
03
1*
09
#405000
1!
12
13
0*
#410000
1#
0!
18
02
03
1*
19
#415000
1!
12
13
0*
1C
1:
05
1)
1;
#420000
0#
0!
08
02
03
1*
09
#425000
1!
12
13
0*
#430000
1#
0!
18
02
03
1*
19
#435000
1!
12
13
0*
1B
0C
15
1(
0)
#440000
0#
0!
08
02
03
1*
09
#445000
1!
12
13
0*
#450000
1#
0!
18
02
03
1*
19
#455000
1!
12
13
0*
1C
0<
0:
05
1)
0=
0;
#460000
0#
0!
08
02
03
1*
09
#465000
1!
12
13
0*
#470000
1#
0!
18
02
03
1*
19
#475000
1!
12
13
0*
0A
0B
0C
15
0'
0(
0)
#480000
1"
0#
0!
11
08
02
03
1*
05
#485000
1!
12
13
0*
#490000
1#
0!
18
02
03
1*
#495000
1!
12
13
0*
#500000
0#
0!
08
02
03
1*
#505000
1!
12
13
0*
#510000
1#
0!
18
02
03
1*
#515000
1!
12
13
0*
#520000
0#
0!
08
02
03
1*
#525000
1!
12
13
0*
#530000
1#
0!
18
02
03
1*
#535000
1!
12
13
0*
#540000
0#
0!
08
02
03
1*
#545000
1!
12
13
0*
#550000
1#
0!
18
02
03
1*
#555000
1!
12
13
0*
#560000
0#
0!
08
02
03
1*
#565000
1!
12
13
0*
#570000
1#
0!
18
02
03
1*
#575000
1!
12
13
0*
#580000
0#
0!
08
02
03
1*
#585000
1!
12
13
0*
#590000
1#
0!
18
02
03
1*
#595000
1!
12
13
0*
#600000
0#
0!
08
02
03
1*
#605000
1!
12
13
0*
#610000
1#
0!
18
02
03
1*
#615000
1!
12
13
0*
#620000
0#
0!
08
02
03
1*
#625000
1!
12
13
0*
#630000
1#
0!
18
02
03
1*
#635000
1!
12
13
0*
#640000
0"
0#
0!
01
08
02
03
1*
09
15
#645000
1!
12
13
0*
#650000
1#
0!
18
02
03
1*
19
#655000
1!
12
13
0*
1C
1:
05
1)
1;
#660000
0#
0!
08
02
03
1*
09
#665000
1!
12
13
0*
#670000
1#
0!
18
02
03
1*
19
#675000
1!
12
13
0*
1B
0C
15
1(
0)
#680000
0#
0!
08
02
03
1*
09
#685000
1!
12
13
0*
#690000
1#
0!
18
02
03
1*
19
#695000
1!
12
13
0*
1C
1<
0:
05
1)
1=
0;
#700000
0#
0!
08
02
03
1*
09
#705000
1!
12
13
0*
#710000
1#
0!
18
02
03
1*
19
#715000
1!
12
13
0*
1A
0B
0C
15
1'
0(
0)
#720000
0#
0!
08
02
03
1*
09
#725000
1!
12
13
0*
#730000
1#
0!
18
02
03
1*
19
#735000
1!
12
13
0*
1C
1:
05
1)
1;
#740000
0#
0!
08
02
03
1*
09
#745000
1!
12
13
0*
#750000
1#
0!
18
02
03
1*
19
#755000
1!
12
13
0*
1B
0C
15
1(
0)
#760000
0#
0!
08
02
03
1*
09
#765000
1!
12
13
0*
#770000
1#
0!
18
02
03
1*
19
#775000
1!
12
13
0*
1C
0<
0:
05
1)
0=
0;
#780000
0#
0!
08
02
03
1*
09
#785000
1!
12
13
0*
#790000
1#
0!
18
02
03
1*
19
#795000
1!
12
13
0*
0A
0B
0C
15
0'
0(
0)
#800000
1"
0#
0!
11
08
02
03
1*
05
#805000
1!
12
13
0*
#810000
1#
0!
18
02
03
1*
#815000
1!
12
13
0*
#820000
0#
0!
08
02
03
1*
#825000
1!
12
13
0*
#830000
1#
0!
18
02
03
1*
#835000
1!
12
13
0*
#840000
0#
0!
08
02
03
1*
#845000
1!
12
13
0*
#850000
1#
0!
18
02
03
1*
#855000
1!
12
13
0*
#860000
0#
0!
08
02
03
1*
#865000
1!
12
13
0*
#870000
1#
0!
18
02
03
1*
#875000
1!
12
13
0*
#880000
0#
0!
08
02
03
1*
#885000
1!
12
13
0*
#890000
1#
0!
18
02
03
1*
#895000
1!
12
13
0*
#900000
0#
0!
08
02
03
1*
#905000
1!
12
13
0*
#910000
1#
0!
18
02
03
1*
#915000
1!
12
13
0*
#920000
0#
0!
08
02
03
1*
#925000
1!
12
13
0*
#930000
1#
0!
18
02
03
1*
#935000
1!
12
13
0*
#940000
0#
0!
08
02
03
1*
#945000
1!
12
13
0*
#950000
1#
0!
18
02
03
1*
#955000
1!
12
13
0*
#960000
0"
0#
0!
01
08
02
03
1*
09
15
#965000
1!
12
13
0*
#970000
1#
0!
18
02
03
1*
19
#975000
1!
12
13
0*
1C
1:
05
1)
1;
#980000
0#
0!
08
02
03
1*
09
#985000
1!
12
13
0*
#990000
1#
0!
18
02
03
1*
19
#995000
1!
12
13
0*
1B
0C
15
1(
0)
