tutoriaisBRABOS/mux/simulation/qsim/mux4_1.msim.vcd
$comment
	File created using the following command:
		vcd file mux4_1.msim.vcd -direction
$end
$date
	Wed Mar 03 11:21:20 2021
$end
$version
	ModelSim Version 10.1d
$end
$timescale
	1ps
$end
$scope module mux4_1_vlg_vec_tst $end
$var reg 4 ! A [3:0] $end
$var reg 2 " sel [1:0] $end
$var wire 1 # X $end
$var wire 1 $ sampler $end
$scope module i1 $end
$var wire 1 % gnd $end
$var wire 1 & vcc $end
$var wire 1 ' unknown $end
$var tri1 1 ( devclrn $end
$var tri1 1 ) devpor $end
$var tri1 1 * devoe $end
$var wire 1 + Mux0~0_combout $end
$var wire 1 , Mux0~1_combout $end
$var wire 1 - A~combout [3] $end
$var wire 1 . A~combout [2] $end
$var wire 1 / A~combout [1] $end
$var wire 1 0 A~combout [0] $end
$var wire 1 1 sel~combout [1] $end
$var wire 1 2 sel~combout [0] $end
$upscope $end
$upscope $end
$enddefinitions $end
#0
$dumpvars
b0 !
b0 "
0#
x$
0%
1&
x'
1(
1)
1*
0+
0,
00
0/
0.
0-
02
01
$end
#2500
b1 !
10
0$
1+
1,
1#
#5000
b0 !
00
1$
0+
0,
0#
#6000
b10 !
1/
0$
#7500
b11 !
10
1$
1+
1,
1#
#10000
b111 !
b110 !
00
1.
0$
0+
0,
0#
#12000
b100 !
0/
1$
#12500
b101 !
10
0$
1+
1,
1#
#15000
b100 !
00
1$
0+
0,
0#
#17500
b1100 !
b1101 !
10
1-
0$
1+
1,
1#
#18000
b1111 !
1/
1$
#20000
b1011 !
b1010 !
00
0.
0$
0+
0,
0#
#22500
b1011 !
10
1$
1+
1,
1#
#24000
b1001 !
0/
0$
#25000
b1000 !
00
1$
0+
0,
0#
#27500
b1001 !
10
0$
1+
1,
1#
#30000
b1101 !
b1111 !
b1110 !
00
1/
1.
1$
0+
0,
0#
#32500
b1111 !
10
0$
1+
1,
1#
#35000
b111 !
b110 !
00
0-
1$
0+
0,
0#
#36000
b100 !
0/
0$
#37500
b101 !
10
1$
1+
1,
1#
#40000
b1 !
b0 !
00
0.
0$
0+
0,
0#
#42000
b10 !
1/
1$
#42500
b11 !
10
0$
1+
1,
1#
#45000
b10 !
00
1$
0+
0,
0#
#47500
b11 !
10
0$
1+
1,
1#
#48000
b1 !
0/
1$
#50000
b1 "
b101 !
b100 !
00
1.
12
0$
0+
0,
0#
#52500
b1100 !
b1101 !
10
1-
1$
#54000
b1111 !
1/
0$
1+
1,
1#
#55000
b1110 !
00
1$
#57500
b1111 !
10
0$
#60000
b1011 !
b1001 !
b1000 !
00
0/
0.
1$
0+
0,
0#
#62500
b1001 !
10
0$
#65000
b1000 !
00
1$
#66000
b1010 !
1/
0$
1+
1,
1#
#67500
b1011 !
10
1$
#70000
b11 !
b111 !
b110 !
00
1.
0-
0$
#72000
b100 !
0/
1$
0+
0,
0#
#72500
b101 !
10
0$
#75000
b100 !
00
1$
#77500
b101 !
10
0$
#78000
b111 !
1/
1$
1+
1,
1#
#80000
b11 !
b10 !
00
0.
0$
#82500
b11 !
10
1$
#84000
b1 !
0/
0$
0+
0,
0#
#85000
b0 !
00
1$
#87500
b1000 !
b1001 !
10
1-
0$
#90000
b1101 !
b1111 !
b1110 !
00
1/
1.
1$
1+
1,
1#
#92500
b1111 !
10
0$
#95000
b1110 !
00
1$
#96000
b1100 !
0/
0$
0+
0,
0#
#97500
b1101 !
10
1$
#100000
b1001 !
b1000 !
00
0.
0$
#102000
b1010 !
1/
1$
1+
1,
1#
#102500
b1011 !
10
0$
#105000
b11 !
b10 !
00
0-
1$
#107500
b11 !
10
0$
#108000
b1 !
0/
1$
0+
0,
0#
#110000
b101 !
b100 !
00
1.
0$
#112500
b101 !
10
1$
#114000
b111 !
1/
0$
1+
1,
1#
#115000
b110 !
00
1$
#117500
b111 !
10
0$
#120000
b11 !
b1 !
b0 !
00
0/
0.
1$
0+
0,
0#
#122500
b1000 !
b1001 !
10
1-
0$
#125000
b1000 !
00
1$
#126000
b1010 !
1/
0$
1+
1,
1#
#127500
b1011 !
10
1$
#130000
b1111 !
b1110 !
00
1.
0$
#132000
b1100 !
0/
1$
0+
0,
0#
#132500
b1101 !
10
0$
#135000
b1100 !
00
1$
#137500
b1101 !
10
0$
#138000
b1111 !
1/
1$
1+
1,
1#
#140000
b111 !
b11 !
b10 !
00
0.
0-
0$
#142500
b11 !
10
1$
#144000
b1 !
0/
0$
0+
0,
0#
#145000
b0 !
00
1$
#147500
b1 !
10
0$
#150000
b101 !
b111 !
b110 !
00
1/
1.
1$
1+
1,
1#
#152500
b111 !
10
0$
#155000
b110 !
00
1$
#156000
b100 !
0/
0$
0+
0,
0#
#157500
b1100 !
b1101 !
10
1-
1$
#160000
b1001 !
b1000 !
00
0.
0$
#162000
b1010 !
1/
1$
1+
1,
1#
#162500
b1011 !
10
0$
#165000
b1010 !
00
1$
#167500
b1011 !
10
0$
#168000
b1001 !
0/
1$
0+
0,
0#
#170000
b1101 !
b1100 !
00
1.
0$
#172500
b1101 !
10
1$
#174000
b1111 !
1/
0$
1+
1,
1#
#175000
b111 !
b110 !
00
0-
1$
#177500
b111 !
10
0$
#180000
b11 !
b1 !
b0 !
00
0/
0.
1$
0+
0,
0#
#182500
b1 !
10
0$
#185000
b0 !
00
1$
#186000
b10 !
1/
0$
1+
1,
1#
#187500
b11 !
10
1$
#190000
b111 !
b110 !
00
1.
0$
#192000
b100 !
0/
1$
0+
0,
0#
#192500
b1100 !
b1101 !
10
1-
0$
#195000
b1100 !
00
1$
#197500
b1101 !
10
0$
#198000
b1111 !
1/
1$
1+
1,
1#
#200000
b1011 !
b1010 !
00
0.
0$
#202500
b1011 !
10
1$
#204000
b1001 !
0/
0$
0+
0,
0#
#205000
b1000 !
00
1$
#207500
b1001 !
10
0$
#210000
b0 "
b1 !
b101 !
b111 !
b110 !
00
1/
1.
0-
02
1$
#212500
b111 !
10
0$
1+
1,
1#
#215000
b110 !
00
1$
0+
0,
0#
#216000
b100 !
0/
0$
#217500
b101 !
10
1$
1+
1,
1#
#220000
b1 !
b0 !
00
0.
0$
0+
0,
0#
#222000
b10 !
1/
1$
#222500
b11 !
10
0$
1+
1,
1#
#225000
b10 !
00
1$
0+
0,
0#
#227500
b1010 !
b1011 !
10
1-
0$
1+
1,
1#
#228000
b1001 !
0/
1$
#230000
b1101 !
b1100 !
00
1.
0$
0+
0,
0#
#232500
b1101 !
10
1$
1+
1,
1#
#234000
b1111 !
1/
0$
#235000
b1110 !
00
1$
0+
0,
0#
#237500
b1111 !
10
0$
1+
1,
1#
#240000
b1011 !
b1001 !
b1000 !
00
0/
0.
1$
0+
0,
0#
#242500
b1001 !
10
0$
1+
1,
1#
#245000
b1 !
b0 !
00
0-
1$
0+
0,
0#
#246000
b10 !
1/
0$
#247500
b11 !
10
1$
1+
1,
1#
#250000
b111 !
b110 !
00
1.
0$
0+
0,
0#
#252000
b100 !
0/
1$
#252500
b101 !
10
0$
1+
1,
1#
#255000
b100 !
00
1$
0+
0,
0#
#257500
b101 !
10
0$
1+
1,
1#
#258000
b111 !
1/
1$
#260000
b11 !
b10 !
00
0.
0$
0+
0,
0#
#262500
b1010 !
b1011 !
10
1-
1$
1+
1,
1#
#264000
b1001 !
0/
0$
#265000
b1000 !
00
1$
0+
0,
0#
#267500
b1001 !
10
0$
1+
1,
1#
#270000
b1101 !
b1111 !
b1110 !
00
1/
1.
1$
0+
0,
0#
#272500
b1111 !
10
0$
1+
1,
1#
#275000
b1110 !
00
1$
0+
0,
0#
#276000
b1100 !
0/
0$
#277500
b1101 !
10
1$
1+
1,
1#
#280000
b10 "
b101 !
b1 !
b0 !
00
0.
0-
11
0$
0+
0,
0#
#282000
b10 !
1/
1$
#282500
b11 !
10
0$
#285000
b10 !
00
1$
#287500
b11 !
10
0$
#288000
b1 !
0/
1$
#290000
b101 !
b100 !
00
1.
0$
1,
1#
#292500
b101 !
10
1$
#294000
b111 !
1/
0$
#295000
b110 !
00
1$
#297500
b1110 !
b1111 !
10
1-
0$
#300000
b1011 !
b1001 !
b1000 !
00
0/
0.
1$
0,
0#
#302500
b1001 !
10
0$
#305000
b1000 !
00
1$
#306000
b1010 !
1/
0$
#307500
b1011 !
10
1$
#310000
b1111 !
b1110 !
00
1.
0$
1,
1#
#312000
b1100 !
0/
1$
#312500
b1101 !
10
0$
#315000
b101 !
b100 !
00
0-
1$
#317500
b101 !
10
0$
#318000
b111 !
1/
1$
#320000
b11 !
b10 !
00
0.
0$
0,
0#
#322500
b11 !
10
1$
#324000
b1 !
0/
0$
#325000
b0 !
00
1$
#327500
b1 !
10
0$
#330000
b101 !
b111 !
b110 !
00
1/
1.
1$
1,
1#
#332500
b1110 !
b1111 !
10
1-
0$
#335000
b1110 !
00
1$
#336000
b1100 !
0/
0$
#337500
b1101 !
10
1$
#340000
b1001 !
b1000 !
00
0.
0$
0,
0#
#342000
b1010 !
1/
1$
#342500
b1011 !
10
0$
#345000
b1010 !
00
1$
#347500
b1011 !
10
0$
#348000
b1001 !
0/
1$
#350000
b1 !
b101 !
b100 !
00
1.
0-
0$
1,
1#
#352500
b101 !
10
1$
#354000
b111 !
1/
0$
#355000
b110 !
00
1$
#357500
b111 !
10
0$
#360000
b11 !
b1 !
b0 !
00
0/
0.
1$
0,
0#
#362500
b1 !
10
0$
#365000
b0 !
00
1$
#366000
b10 !
1/
0$
#367500
b1010 !
b1011 !
10
1-
1$
#370000
b1111 !
b1110 !
00
1.
0$
1,
1#
#372000
b1100 !
0/
1$
#372500
b1101 !
10
0$
#375000
b1100 !
00
1$
#377500
b1101 !
10
0$
#378000
b1111 !
1/
1$
#380000
b1011 !
b1010 !
00
0.
0$
0,
0#
#382500
b1011 !
10
1$
#384000
b1001 !
0/
0$
#385000
b1 !
b0 !
00
0-
1$
#387500
b1 !
10
0$
#390000
b101 !
b111 !
b110 !
00
1/
1.
1$
1,
1#
#392500
b111 !
10
0$
#395000
b110 !
00
1$
#396000
b100 !
0/
0$
#397500
b101 !
10
1$
#400000
b1 !
b0 !
00
0.
0$
0,
0#
#402000
b10 !
1/
1$
#402500
b1010 !
b1011 !
10
1-
0$
#405000
b1010 !
00
1$
#407500
b1011 !
10
0$
#408000
b1001 !
0/
1$
#410000
b1101 !
b1100 !
00
1.
0$
1,
1#
#412500
b1101 !
10
1$
#414000
b1111 !
1/
0$
#415000
b1110 !
00
1$
#417500
b1111 !
10
0$
#420000
b111 !
b11 !
b1 !
b0 !
00
0/
0.
0-
1$
0,
0#
#422500
b1 !
10
0$
#425000
b0 !
00
1$
#426000
b10 !
1/
0$
#427500
b11 !
10
1$
#430000
b111 !
b110 !
00
1.
0$
1,
1#
#432000
b100 !
0/
1$
#432500
b101 !
10
0$
#435000
b100 !
00
1$
#437500
b1100 !
b1101 !
10
1-
0$
#438000
b1111 !
1/
1$
#440000
b1011 !
b1010 !
00
0.
0$
0,
0#
#442500
b1011 !
10
1$
#444000
b1001 !
0/
0$
#445000
b1000 !
00
1$
#447500
b1001 !
10
0$
#450000
b11 "
b1101 !
b1111 !
b1110 !
00
1/
1.
12
1$
1+
1,
1#
#452500
b1111 !
10
0$
#455000
b111 !
b110 !
00
0-
1$
0,
0#
#456000
b100 !
0/
0$
#457500
b101 !
10
1$
#460000
b1 !
b0 !
00
0.
0$
#462000
b10 !
1/
1$
#462500
b11 !
10
0$
#465000
b10 !
00
1$
#467500
b11 !
10
0$
#468000
b1 !
0/
1$
#470000
b101 !
b100 !
00
1.
0$
#472500
b1100 !
b1101 !
10
1-
1$
1,
1#
#474000
b1111 !
1/
0$
#475000
b1110 !
00
1$
#477500
b1111 !
10
0$
#480000
b1011 !
b1001 !
b1000 !
00
0/
0.
1$
#482500
b1001 !
10
0$
#485000
b1000 !
00
1$
#486000
b1010 !
1/
0$
#487500
b1011 !
10
1$
#490000
b11 !
b111 !
b110 !
00
1.
0-
0$
0,
0#
#492000
b100 !
0/
1$
#492500
b101 !
10
0$
#495000
b100 !
00
1$
#497500
b101 !
10
0$
#498000
b111 !
1/
1$
#500000
b11 !
b10 !
00
0.
0$
#502500
b11 !
10
1$
#504000
b1 !
0/
0$
#505000
b0 !
00
1$
#507500
b1000 !
b1001 !
10
1-
0$
1,
1#
#510000
b1 "
b1101 !
b1111 !
b1110 !
00
1/
1.
01
1$
#512500
b1111 !
10
0$
#515000
b1110 !
00
1$
#516000
b1100 !
0/
0$
0+
0,
0#
#517500
b1101 !
10
1$
#520000
b0 "
b1001 !
b1000 !
00
0.
02
0$
#522000
b1010 !
1/
1$
#522500
b1011 !
10
0$
1+
1,
1#
#525000
b11 !
b10 !
00
0-
1$
0+
0,
0#
#527500
b11 !
10
0$
1+
1,
1#
#528000
b1 !
0/
1$
#530000
b101 !
b100 !
00
1.
0$
0+
0,
0#
#532500
b101 !
10
1$
1+
1,
1#
#534000
b111 !
1/
0$
#535000
b110 !
00
1$
0+
0,
0#
#537500
b111 !
10
0$
1+
1,
1#
#540000
b11 !
b1 !
b0 !
00
0/
0.
1$
0+
0,
0#
#542500
b1000 !
b1001 !
10
1-
0$
1+
1,
1#
#545000
b1000 !
00
1$
0+
0,
0#
#546000
b1010 !
1/
0$
#547500
b1011 !
10
1$
1+
1,
1#
#550000
b1111 !
b1110 !
00
1.
0$
0+
0,
0#
#552000
b1100 !
0/
1$
#552500
b1101 !
10
0$
1+
1,
1#
#555000
b1100 !
00
1$
0+
0,
0#
#557500
b1101 !
10
0$
1+
1,
1#
#558000
b1111 !
1/
1$
#560000
b111 !
b11 !
b10 !
00
0.
0-
0$
0+
0,
0#
#562500
b11 !
10
1$
1+
1,
1#
#564000
b1 !
0/
0$
#565000
b0 !
00
1$
0+
0,
0#
#567500
b1 !
10
0$
1+
1,
1#
#570000
b101 !
b111 !
b110 !
00
1/
1.
1$
0+
0,
0#
#572500
b111 !
10
0$
1+
1,
1#
#575000
b110 !
00
1$
0+
0,
0#
#576000
b100 !
0/
0$
#577500
b1100 !
b1101 !
10
1-
1$
1+
1,
1#
#580000
b1001 !
b1000 !
00
0.
0$
0+
0,
0#
#582000
b1010 !
1/
1$
#582500
b1011 !
10
0$
1+
1,
1#
#585000
b1010 !
00
1$
0+
0,
0#
#587500
b1011 !
10
0$
1+
1,
1#
#588000
b1001 !
0/
1$
#590000
b1101 !
b1100 !
00
1.
0$
0+
0,
0#
#592500
b1101 !
10
1$
1+
1,
1#
#594000
b1111 !
1/
0$
#595000
b111 !
b110 !
00
0-
1$
0+
0,
0#
#597500
b111 !
10
0$
1+
1,
1#
#600000
b11 !
b1 !
b0 !
00
0/
0.
1$
0+
0,
0#
#602500
b1 !
10
0$
1+
1,
1#
#605000
b0 !
00
1$
0+
0,
0#
#606000
b10 !
1/
0$
#607500
b11 !
10
1$
1+
1,
1#
#610000
b111 !
b110 !
00
1.
0$
0+
0,
0#
#612000
b100 !
0/
1$
#612500
b1100 !
b1101 !
10
1-
0$
1+
1,
1#
#615000
b1100 !
00
1$
0+
0,
0#
#617500
b1101 !
10
0$
1+
1,
1#
#618000
b1111 !
1/
1$
#620000
b1011 !
b1010 !
00
0.
0$
0+
0,
0#
#622500
b1011 !
10
1$
1+
1,
1#
#624000
b1001 !
0/
0$
#625000
b1000 !
00
1$
0+
0,
0#
#627500
b1001 !
10
0$
1+
1,
1#
#630000
b1 !
b101 !
b111 !
b110 !
00
1/
1.
0-
1$
0+
0,
0#
#632500
b111 !
10
0$
1+
1,
1#
#635000
b110 !
00
1$
0+
0,
0#
#636000
b100 !
0/
0$
#637500
b101 !
10
1$
1+
1,
1#
#640000
b1 !
b0 !
00
0.
0$
0+
0,
0#
#642000
b10 !
1/
1$
#642500
b11 !
10
0$
1+
1,
1#
#645000
b10 !
00
1$
0+
0,
0#
#647500
b1010 !
b1011 !
10
1-
0$
1+
1,
1#
#648000
b1001 !
0/
1$
#650000
b1101 !
b1100 !
00
1.
0$
0+
0,
0#
#652500
b1101 !
10
1$
1+
1,
1#
#654000
b1111 !
1/
0$
#655000
b1110 !
00
1$
0+
0,
0#
#657500
b1111 !
10
0$
1+
1,
1#
#660000
b1011 !
b1001 !
b1000 !
00
0/
0.
1$
0+
0,
0#
#662500
b1001 !
10
0$
1+
1,
1#
#665000
b1 !
b0 !
00
0-
1$
0+
0,
0#
#666000
b10 !
1/
0$
#667500
b11 !
10
1$
1+
1,
1#
#670000
b111 !
b110 !
00
1.
0$
0+
0,
0#
#672000
b100 !
0/
1$
#672500
b101 !
10
0$
1+
1,
1#
#675000
b100 !
00
1$
0+
0,
0#
#677500
b101 !
10
0$
1+
1,
1#
#678000
b111 !
1/
1$
#680000
b11 !
b10 !
00
0.
0$
0+
0,
0#
#682500
b1010 !
b1011 !
10
1-
1$
1+
1,
1#
#684000
b1001 !
0/
0$
#685000
b1000 !
00
1$
0+
0,
0#
#687500
b1001 !
10
0$
1+
1,
1#
#690000
b1101 !
b1111 !
b1110 !
00
1/
1.
1$
0+
0,
0#
#692500
b1111 !
10
0$
1+
1,
1#
#695000
b1110 !
00
1$
0+
0,
0#
#696000
b1100 !
0/
0$
#697500
b1101 !
10
1$
1+
1,
1#
#700000
b101 !
b1 !
b0 !
00
0.
0-
0$
0+
0,
0#
#702000
b10 !
1/
1$
#702500
b11 !
10
0$
1+
1,
1#
#705000
b10 !
00
1$
0+
0,
0#
#707500
b11 !
10
0$
1+
1,
1#
#708000
b1 !
0/
1$
#710000
b101 !
b100 !
00
1.
0$
0+
0,
0#
#712500
b101 !
10
1$
1+
1,
1#
#714000
b111 !
1/
0$
#715000
b110 !
00
1$
0+
0,
0#
#717500
b1110 !
b1111 !
10
1-
0$
1+
1,
1#
#720000
b1011 !
b1001 !
b1000 !
00
0/
0.
1$
0+
0,
0#
#722500
b1001 !
10
0$
1+
1,
1#
#725000
b1000 !
00
1$
0+
0,
0#
#726000
b1010 !
1/
0$
#727500
b1011 !
10
1$
1+
1,
1#
#730000
b1111 !
b1110 !
00
1.
0$
0+
0,
0#
#732000
b1100 !
0/
1$
#732500
b1101 !
10
0$
1+
1,
1#
#735000
b101 !
b100 !
00
0-
1$
0+
0,
0#
#737500
b101 !
10
0$
1+
1,
1#
#738000
b111 !
1/
1$
#740000
b11 !
b10 !
00
0.
0$
0+
0,
0#
#742500
b11 !
10
1$
1+
1,
1#
#744000
b1 !
0/
0$
#745000
b0 !
00
1$
0+
0,
0#
#747500
b1 !
10
0$
1+
1,
1#
#750000
b101 !
b111 !
b110 !
00
1/
1.
1$
0+
0,
0#
#752500
b1110 !
b1111 !
10
1-
0$
1+
1,
1#
#755000
b1110 !
00
1$
0+
0,
0#
#756000
b1100 !
0/
0$
#757500
b1101 !
10
1$
1+
1,
1#
#760000
b1001 !
b1000 !
00
0.
0$
0+
0,
0#
#762000
b1010 !
1/
1$
#762500
b1011 !
10
0$
1+
1,
1#
#765000
b1010 !
00
1$
0+
0,
0#
#767500
b1011 !
10
0$
1+
1,
1#
#768000
b1001 !
0/
1$
#770000
b1 !
b101 !
b100 !
00
1.
0-
0$
0+
0,
0#
#772500
b101 !
10
1$
1+
1,
1#
#774000
b111 !
1/
0$
#775000
b110 !
00
1$
0+
0,
0#
#777500
b111 !
10
0$
1+
1,
1#
#780000
b11 !
b1 !
b0 !
00
0/
0.
1$
0+
0,
0#
#782500
b1 !
10
0$
1+
1,
1#
#785000
b0 !
00
1$
0+
0,
0#
#786000
b10 !
1/
0$
#787500
b1010 !
b1011 !
10
1-
1$
1+
1,
1#
#790000
b1111 !
b1110 !
00
1.
0$
0+
0,
0#
#792000
b1100 !
0/
1$
#792500
b1101 !
10
0$
1+
1,
1#
#795000
b1100 !
00
1$
0+
0,
0#
#797500
b1101 !
10
0$
1+
1,
1#
#798000
b1111 !
1/
1$
#800000
b1011 !
b1010 !
00
0.
0$
0+
0,
0#
#802500
b1011 !
10
1$
1+
1,
1#
#804000
b1001 !
0/
0$
#805000
b1 !
b0 !
00
0-
1$
0+
0,
0#
#807500
b1 !
10
0$
1+
1,
1#
#810000
b101 !
b111 !
b110 !
00
1/
1.
1$
0+
0,
0#
#812500
b111 !
10
0$
1+
1,
1#
#815000
b110 !
00
1$
0+
0,
0#
#816000
b100 !
0/
0$
#817500
b101 !
10
1$
1+
1,
1#
#820000
b1 !
b0 !
00
0.
0$
0+
0,
0#
#822000
b10 !
1/
1$
#822500
b1010 !
b1011 !
10
1-
0$
1+
1,
1#
#825000
b1010 !
00
1$
0+
0,
0#
#827500
b1011 !
10
0$
1+
1,
1#
#828000
b1001 !
0/
1$
#830000
b1101 !
b1100 !
00
1.
0$
0+
0,
0#
#832500
b1101 !
10
1$
1+
1,
1#
#834000
b1111 !
1/
0$
#835000
b1110 !
00
1$
0+
0,
0#
#837500
b1111 !
10
0$
1+
1,
1#
#840000
b111 !
b11 !
b1 !
b0 !
00
0/
0.
0-
1$
0+
0,
0#
#842500
b1 !
10
0$
1+
1,
1#
#845000
b0 !
00
1$
0+
0,
0#
#846000
b10 !
1/
0$
#847500
b11 !
10
1$
1+
1,
1#
#850000
b111 !
b110 !
00
1.
0$
0+
0,
0#
#852000
b100 !
0/
1$
#852500
b101 !
10
0$
1+
1,
1#
#855000
b100 !
00
1$
0+
0,
0#
#857500
b1100 !
b1101 !
10
1-
0$
1+
1,
1#
#858000
b1111 !
1/
1$
#860000
b1011 !
b1010 !
00
0.
0$
0+
0,
0#
#862500
b1011 !
10
1$
1+
1,
1#
#864000
b1001 !
0/
0$
#865000
b1000 !
00
1$
0+
0,
0#
#867500
b1001 !
10
0$
1+
1,
1#
#870000
b1101 !
b1111 !
b1110 !
00
1/
1.
1$
0+
0,
0#
#872500
b1111 !
10
0$
1+
1,
1#
#875000
b111 !
b110 !
00
0-
1$
0+
0,
0#
#876000
b100 !
0/
0$
#877500
b101 !
10
1$
1+
1,
1#
#880000
b1 !
b0 !
00
0.
0$
0+
0,
0#
#882000
b10 !
1/
1$
#882500
b11 !
10
0$
1+
1,
1#
#885000
b10 !
00
1$
0+
0,
0#
#887500
b11 !
10
0$
1+
1,
1#
#888000
b1 !
0/
1$
#890000
b101 !
b100 !
00
1.
0$
0+
0,
0#
#892500
b1100 !
b1101 !
10
1-
1$
1+
1,
1#
#894000
b1111 !
1/
0$
#895000
b1110 !
00
1$
0+
0,
0#
#897500
b1111 !
10
0$
1+
1,
1#
#900000
b1011 !
b1001 !
b1000 !
00
0/
0.
1$
0+
0,
0#
#902500
b1001 !
10
0$
1+
1,
1#
#905000
b1000 !
00
1$
0+
0,
0#
#906000
b1010 !
1/
0$
#907500
b1011 !
10
1$
1+
1,
1#
#910000
b11 !
b111 !
b110 !
00
1.
0-
0$
0+
0,
0#
#912000
b100 !
0/
1$
#912500
b101 !
10
0$
1+
1,
1#
#915000
b100 !
00
1$
0+
0,
0#
#917500
b101 !
10
0$
1+
1,
1#
#918000
b111 !
1/
1$
#920000
b11 !
b10 !
00
0.
0$
0+
0,
0#
#922500
b11 !
10
1$
1+
1,
1#
#924000
b1 !
0/
0$
#925000
b0 !
00
1$
0+
0,
0#
#927500
b1000 !
b1001 !
10
1-
0$
1+
1,
1#
#930000
b1101 !
b1111 !
b1110 !
00
1/
1.
1$
0+
0,
0#
#932500
b1111 !
10
0$
1+
1,
1#
#935000
b1110 !
00
1$
0+
0,
0#
#936000
b1100 !
0/
0$
#937500
b1101 !
10
1$
1+
1,
1#
#940000
b1001 !
b1000 !
00
0.
0$
0+
0,
0#
#942000
b1010 !
1/
1$
#942500
b1011 !
10
0$
1+
1,
1#
#945000
b11 !
b10 !
00
0-
1$
0+
0,
0#
#947500
b11 !
10
0$
1+
1,
1#
#948000
b1 !
0/
1$
#950000
b101 !
b100 !
00
1.
0$
0+
0,
0#
#952500
b101 !
10
1$
1+
1,
1#
#954000
b111 !
1/
0$
#955000
b110 !
00
1$
0+
0,
0#
#957500
b111 !
10
0$
1+
1,
1#
#960000
b11 !
b1 !
b0 !
00
0/
0.
1$
0+
0,
0#
#962500
b1000 !
b1001 !
10
1-
0$
1+
1,
1#
#965000
b1000 !
00
1$
0+
0,
0#
#966000
b1010 !
1/
0$
#967500
b1011 !
10
1$
1+
1,
1#
#970000
b1111 !
b1110 !
00
1.
0$
0+
0,
0#
#972000
b1100 !
0/
1$
#972500
b1101 !
10
0$
1+
1,
1#
#975000
b1100 !
00
1$
0+
0,
0#
#977500
b1101 !
10
0$
1+
1,
1#
#978000
b1111 !
1/
1$
#980000
b111 !
b11 !
b10 !
00
0.
0-
0$
0+
0,
0#
#982500
b11 !
10
1$
1+
1,
1#
#984000
b1 !
0/
0$
#985000
b0 !
00
1$
0+
0,
0#
#987500
b1 !
10
0$
1+
1,
1#
#990000
b101 !
b111 !
b110 !
00
1/
1.
1$
0+
0,
0#
#992500
b111 !
10
0$
1+
1,
1#
#995000
b110 !
00
1$
0+
0,
0#
#996000
b100 !
0/
0$
#997500
b1100 !
b1101 !
10
1-
1$
1+
1,
1#
